# Exported from Wings 3D 2.1.5
mtllib testmesh.mtl
o sphere1
#58 vertices, 112 faces
v 0.38268343 0.92387953 0.0000000e+0
v 0.27059805 0.92387953 0.27059805
v 2.3432602e-17 0.92387953 0.38268343
v -0.27059805 0.92387953 0.27059805
v -0.38268343 0.92387953 4.6865204e-17
v -0.27059805 0.92387953 -0.27059805
v -7.0297806e-17 0.92387953 -0.38268343
v 0.27059805 0.92387953 -0.27059805
v 0.70710678 0.70710678 0.0000000e+0
v 0.50000000 0.70710678 0.50000000
v 4.3297803e-17 0.70710678 0.70710678
v -0.50000000 0.70710678 0.50000000
v -0.70710678 0.70710678 8.6595606e-17
v -0.50000000 0.70710678 -0.50000000
v -1.2989341e-16 0.70710678 -0.70710678
v 0.50000000 0.70710678 -0.50000000
v 0.92387953 0.38268343 0.0000000e+0
v 0.65328148 0.38268343 0.65328148
v 5.6571306e-17 0.38268343 0.92387953
v -0.65328148 0.38268343 0.65328148
v -0.92387953 0.38268343 1.1314261e-16
v -0.65328148 0.38268343 -0.65328148
v -1.6971392e-16 0.38268343 -0.92387953
v 0.65328148 0.38268343 -0.65328148
v 0.22000000 6.1232340e-17 1.0824674e-17
v 0.15556349 6.1232340e-17 0.15556349
v -2.9827583e-17 6.1232340e-17 0.22000000
v -0.15556349 6.1232340e-17 0.15556349
v -0.22000000 6.1232340e-17 3.7766904e-17
v -0.15556349 6.1232340e-17 -0.15556349
v -8.3712042e-17 6.1232340e-17 -0.22000000
v 0.15556349 6.1232340e-17 -0.15556349
v 0.92387953 -0.38268343 0.0000000e+0
v 0.65328148 -0.38268343 0.65328148
v 5.6571306e-17 -0.38268343 0.92387953
v -0.65328148 -0.38268343 0.65328148
v -0.92387953 -0.38268343 1.1314261e-16
v -0.65328148 -0.38268343 -0.65328148
v -1.6971392e-16 -0.38268343 -0.92387953
v 0.65328148 -0.38268343 -0.65328148
v 0.70710678 -0.70710678 0.0000000e+0
v 0.50000000 -0.70710678 0.50000000
v 4.3297803e-17 -0.70710678 0.70710678
v -0.50000000 -0.70710678 0.50000000
v -0.70710678 -0.70710678 8.6595606e-17
v -0.50000000 -0.70710678 -0.50000000
v -1.2989341e-16 -0.70710678 -0.70710678
v 0.50000000 -0.70710678 -0.50000000
v 0.38268343 -0.92387953 0.0000000e+0
v 0.27059805 -0.92387953 0.27059805
v 2.3432602e-17 -0.92387953 0.38268343
v -0.27059805 -0.92387953 0.27059805
v -0.38268343 -0.92387953 4.6865204e-17
v -0.27059805 -0.92387953 -0.27059805
v -7.0297806e-17 -0.92387953 -0.38268343
v 0.27059805 -0.92387953 -0.27059805
v 0.0000000e+0 1.00000000 0.0000000e+0
v 0.0000000e+0 -1.00000000 0.0000000e+0
vn 0.38061083 0.92473531 0.0000000e+0
vn 0.31196197 0.89741822 0.31196197
vn 0.0000000e+0 0.92473531 0.38061083
vn -0.31196197 0.89741822 0.31196197
vn -0.38061083 0.92473531 2.1533680e-17
vn -0.31196197 0.89741822 -0.31196197
vn -2.8711574e-17 0.92473531 -0.38061083
vn 0.31196197 0.89741822 -0.31196197
vn 0.70497678 0.70923039 -3.6847464e-18
vn 0.49849386 0.70923039 0.49849386
vn 3.6847464e-18 0.70923039 0.70497678
vn -0.49849386 0.70923039 0.49849386
vn -0.70497678 0.70923039 3.6847464e-17
vn -0.49849386 0.70923039 -0.49849386
vn -2.9477971e-17 0.70923039 -0.70497678
vn 0.49849386 0.70923039 -0.49849386
vn 0.96585741 -0.25907425 0.0000000e+0
vn 0.68296432 -0.25907425 0.68296432
vn -6.4097168e-17 -0.25907425 0.96585741
vn -0.68296432 -0.25907425 0.68296432
vn -0.96585741 -0.25907425 3.2048584e-17
vn -0.68296432 -0.25907425 -0.68296432
vn -1.0682861e-17 -0.25907425 -0.96585741
vn 0.68296432 -0.25907425 -0.68296432
vn 1.00000000 -5.9235188e-17 0.0000000e+0
vn 0.70710678 -5.9235188e-17 0.70710678
vn 0.0000000e+0 -1.4808797e-16 1.00000000
vn -0.70710678 -1.1847038e-16 0.70710678
vn -1.00000000 -8.8852782e-17 2.9617594e-17
vn -0.70710678 -2.3694075e-16 -0.70710678
vn -1.3327917e-16 0.0000000e+0 -1.00000000
vn 0.70710678 -5.9235188e-17 -0.70710678
vn 0.96585741 0.25907425 0.0000000e+0
vn 0.68296432 0.25907425 0.68296432
vn -6.4097168e-17 0.25907425 0.96585741
vn -0.68296432 0.25907425 0.68296432
vn -0.96585741 0.25907425 6.4097168e-17
vn -0.68296432 0.25907425 -0.68296432
vn -2.1365723e-17 0.25907425 -0.96585741
vn 0.68296432 0.25907425 -0.68296432
vn 0.70497678 -0.70923039 0.0000000e+0
vn 0.49849386 -0.70923039 0.49849386
vn -7.3694927e-18 -0.70923039 0.70497678
vn -0.49849386 -0.70923039 0.49849386
vn -0.70497678 -0.70923039 3.6847464e-17
vn -0.49849386 -0.70923039 -0.49849386
vn -3.6847464e-17 -0.70923039 -0.70497678
vn 0.49849386 -0.70923039 -0.49849386
vn 0.38061083 -0.92473531 0.0000000e+0
vn 0.31196197 -0.89741822 0.31196197
vn -1.4355787e-17 -0.92473531 0.38061083
vn -0.31196197 -0.89741822 0.31196197
vn -0.38061083 -0.92473531 3.2300521e-17
vn -0.31196197 -0.89741822 -0.31196197
vn -2.5122627e-17 -0.92473531 -0.38061083
vn 0.31196197 -0.89741822 -0.31196197
vn -3.5489485e-18 1.00000000 -6.5655547e-17
vn -5.3234227e-18 -1.00000000 -6.7430021e-17
g sphere1_default
usemtl default
s 1
f 1/1 9/9 8/8
f 1/1 57/57 2/2
f 2/2 9/9 1/1
f 2/2 11/11 10/10
f 2/2 57/57 3/3
f 3/3 11/11 2/2
f 3/3 57/57 4/4
f 4/4 11/11 3/3
f 4/4 13/13 12/12
f 4/4 57/57 5/5
f 5/5 13/13 4/4
f 5/5 57/57 6/6
f 6/6 13/13 5/5
f 6/6 15/15 14/14
f 6/6 57/57 7/7
f 7/7 15/15 6/6
f 7/7 57/57 8/8
f 8/8 9/9 16/16
f 8/8 15/15 7/7
f 8/8 57/57 1/1
f 9/9 18/18 17/17
f 9/9 24/24 16/16
f 10/10 9/9 2/2
f 10/10 18/18 9/9
f 11/11 18/18 10/10
f 11/11 20/20 19/19
f 12/12 11/11 4/4
f 12/12 20/20 11/11
f 13/13 20/20 12/12
f 13/13 22/22 21/21
f 14/14 13/13 6/6
f 14/14 22/22 13/13
f 15/15 22/22 14/14
f 15/15 24/24 23/23
f 16/16 15/15 8/8
f 16/16 24/24 15/15
f 17/17 24/24 9/9
f 17/17 25/25 24/24
f 18/18 25/25 17/17
f 18/18 27/27 26/26
f 19/19 18/18 11/11
f 19/19 27/27 18/18
f 20/20 27/27 19/19
f 20/20 29/29 28/28
f 21/21 20/20 13/13
f 21/21 29/29 20/20
f 22/22 29/29 21/21
f 22/22 31/31 30/30
f 23/23 22/22 15/15
f 23/23 31/31 22/22
f 24/24 25/25 32/32
f 24/24 31/31 23/23
f 25/25 34/34 33/33
f 25/25 40/40 32/32
f 26/26 25/25 18/18
f 26/26 34/34 25/25
f 27/27 34/34 26/26
f 27/27 36/36 35/35
f 28/28 27/27 20/20
f 28/28 36/36 27/27
f 29/29 36/36 28/28
f 29/29 38/38 37/37
f 30/30 29/29 22/22
f 30/30 38/38 29/29
f 31/31 38/38 30/30
f 31/31 40/40 39/39
f 32/32 31/31 24/24
f 32/32 40/40 31/31
f 33/33 40/40 25/25
f 33/33 41/41 40/40
f 34/34 41/41 33/33
f 34/34 43/43 42/42
f 35/35 34/34 27/27
f 35/35 43/43 34/34
f 36/36 43/43 35/35
f 36/36 45/45 44/44
f 37/37 36/36 29/29
f 37/37 45/45 36/36
f 38/38 45/45 37/37
f 38/38 47/47 46/46
f 39/39 38/38 31/31
f 39/39 47/47 38/38
f 40/40 41/41 48/48
f 40/40 47/47 39/39
f 41/41 50/50 49/49
f 41/41 56/56 48/48
f 42/42 41/41 34/34
f 42/42 50/50 41/41
f 43/43 50/50 42/42
f 43/43 52/52 51/51
f 44/44 43/43 36/36
f 44/44 52/52 43/43
f 45/45 52/52 44/44
f 45/45 54/54 53/53
f 46/46 45/45 38/38
f 46/46 54/54 45/45
f 47/47 54/54 46/46
f 47/47 56/56 55/55
f 48/48 47/47 40/40
f 48/48 56/56 47/47
f 49/49 56/56 41/41
f 49/49 58/58 56/56
f 50/50 58/58 49/49
f 51/51 50/50 43/43
f 51/51 58/58 50/50
f 52/52 58/58 51/51
f 53/53 52/52 45/45
f 53/53 58/58 52/52
f 54/54 58/58 53/53
f 55/55 54/54 47/47
f 55/55 58/58 54/54
f 56/56 58/58 55/55
