^C:\USERS\LUCAS\DESKTOP\ENGINE\ENGINE\TESTENGINE\ASTEROID.CPP
/c /IC:\USERS\LUCAS\DESKTOP\ENGINE\ENGINE\EXTERNAL\ASSIMP\INCLUDE /IC:\USERS\LUCAS\DESKTOP\ENGINE\ENGINE\ENGINEDLL\ /I"C:\USERS\LUCAS\DESKTOP\ENGINE\ENGINE\EXTERNAL\GLEW-2.1.0\INCLUDE" /I"C:\USERS\LUCAS\DESKTOP\ENGINE\ENGINE\EXTERNAL\GLFW-3.2.1\INCLUDE" /I"C:\USERS\LUCAS\DESKTOP\ENGINE\ENGINE\EXTERNAL\GLM-0.9.9.0" /ZI /nologo /W3 /WX- /diagnostics:classic /sdl /Od /Oy- /D _MBCS /Gm /EHsc /RTC1 /MDd /GS /fp:precise /Zc:wchar_t /Zc:forScope /Zc:inline /Fo"DEBUG\\" /Fd"DEBUG\VC141.PDB" /Gd /TP /analyze- C:\USERS\LUCAS\DESKTOP\ENGINE\ENGINE\TESTENGINE\ASTEROID.CPP
^C:\USERS\LUCAS\DESKTOP\ENGINE\ENGINE\TESTENGINE\GAME.CPP
/c /IC:\USERS\LUCAS\DESKTOP\ENGINE\ENGINE\EXTERNAL\ASSIMP\INCLUDE /IC:\USERS\LUCAS\DESKTOP\ENGINE\ENGINE\ENGINEDLL\ /I"C:\USERS\LUCAS\DESKTOP\ENGINE\ENGINE\EXTERNAL\GLEW-2.1.0\INCLUDE" /I"C:\USERS\LUCAS\DESKTOP\ENGINE\ENGINE\EXTERNAL\GLFW-3.2.1\INCLUDE" /I"C:\USERS\LUCAS\DESKTOP\ENGINE\ENGINE\EXTERNAL\GLM-0.9.9.0" /ZI /nologo /W3 /WX- /diagnostics:classic /sdl /Od /Oy- /D _MBCS /Gm /EHsc /RTC1 /MDd /GS /fp:precise /Zc:wchar_t /Zc:forScope /Zc:inline /Fo"DEBUG\\" /Fd"DEBUG\VC141.PDB" /Gd /TP /analyze- C:\USERS\LUCAS\DESKTOP\ENGINE\ENGINE\TESTENGINE\GAME.CPP
^C:\USERS\LUCAS\DESKTOP\ENGINE\ENGINE\TESTENGINE\MAIN.CPP
/c /IC:\USERS\LUCAS\DESKTOP\ENGINE\ENGINE\EXTERNAL\ASSIMP\INCLUDE /IC:\USERS\LUCAS\DESKTOP\ENGINE\ENGINE\ENGINEDLL\ /I"C:\USERS\LUCAS\DESKTOP\ENGINE\ENGINE\EXTERNAL\GLEW-2.1.0\INCLUDE" /I"C:\USERS\LUCAS\DESKTOP\ENGINE\ENGINE\EXTERNAL\GLFW-3.2.1\INCLUDE" /I"C:\USERS\LUCAS\DESKTOP\ENGINE\ENGINE\EXTERNAL\GLM-0.9.9.0" /ZI /nologo /W3 /WX- /diagnostics:classic /sdl /Od /Oy- /D _MBCS /Gm /EHsc /RTC1 /MDd /GS /fp:precise /Zc:wchar_t /Zc:forScope /Zc:inline /Fo"DEBUG\\" /Fd"DEBUG\VC141.PDB" /Gd /TP /analyze- C:\USERS\LUCAS\DESKTOP\ENGINE\ENGINE\TESTENGINE\MAIN.CPP
^C:\USERS\LUCAS\DESKTOP\ENGINE\ENGINE\TESTENGINE\PLAYER.CPP
/c /IC:\USERS\LUCAS\DESKTOP\ENGINE\ENGINE\EXTERNAL\ASSIMP\INCLUDE /IC:\USERS\LUCAS\DESKTOP\ENGINE\ENGINE\ENGINEDLL\ /I"C:\USERS\LUCAS\DESKTOP\ENGINE\ENGINE\EXTERNAL\GLEW-2.1.0\INCLUDE" /I"C:\USERS\LUCAS\DESKTOP\ENGINE\ENGINE\EXTERNAL\GLFW-3.2.1\INCLUDE" /I"C:\USERS\LUCAS\DESKTOP\ENGINE\ENGINE\EXTERNAL\GLM-0.9.9.0" /ZI /nologo /W3 /WX- /diagnostics:classic /sdl /Od /Oy- /D _MBCS /Gm /EHsc /RTC1 /MDd /GS /fp:precise /Zc:wchar_t /Zc:forScope /Zc:inline /Fo"DEBUG\\" /Fd"DEBUG\VC141.PDB" /Gd /TP /analyze- C:\USERS\LUCAS\DESKTOP\ENGINE\ENGINE\TESTENGINE\PLAYER.CPP
^C:\USERS\LUCAS\DESKTOP\ENGINE-COPY\ENGINE\TESTENGINE\ASTEROID.CPP
/c /I"C:\USERS\LUCAS\DESKTOP\ENGINE-COPY\ENGINE\EXTERNAL\ASSIMP\INCLUDE" /I"C:\USERS\LUCAS\DESKTOP\ENGINE-COPY\ENGINE\ENGINEDLL\\" /I"C:\USERS\LUCAS\DESKTOP\ENGINE-COPY\ENGINE\EXTERNAL\GLEW-2.1.0\INCLUDE" /I"C:\USERS\LUCAS\DESKTOP\ENGINE-COPY\ENGINE\EXTERNAL\GLFW-3.2.1\INCLUDE" /I"C:\USERS\LUCAS\DESKTOP\ENGINE-COPY\ENGINE\EXTERNAL\GLM-0.9.9.0" /ZI /nologo /W3 /WX- /diagnostics:classic /sdl /Od /Oy- /D _MBCS /Gm /EHsc /RTC1 /MDd /GS /fp:precise /Zc:wchar_t /Zc:forScope /Zc:inline /Fo"DEBUG\\" /Fd"DEBUG\VC141.PDB" /Gd /TP /analyze- C:\USERS\LUCAS\DESKTOP\ENGINE-COPY\ENGINE\TESTENGINE\ASTEROID.CPP
^C:\USERS\LUCAS\DESKTOP\ENGINE-COPY\ENGINE\TESTENGINE\GAME.CPP
/c /I"C:\USERS\LUCAS\DESKTOP\ENGINE-COPY\ENGINE\EXTERNAL\ASSIMP\INCLUDE" /I"C:\USERS\LUCAS\DESKTOP\ENGINE-COPY\ENGINE\ENGINEDLL\\" /I"C:\USERS\LUCAS\DESKTOP\ENGINE-COPY\ENGINE\EXTERNAL\GLEW-2.1.0\INCLUDE" /I"C:\USERS\LUCAS\DESKTOP\ENGINE-COPY\ENGINE\EXTERNAL\GLFW-3.2.1\INCLUDE" /I"C:\USERS\LUCAS\DESKTOP\ENGINE-COPY\ENGINE\EXTERNAL\GLM-0.9.9.0" /ZI /nologo /W3 /WX- /diagnostics:classic /sdl /Od /Oy- /D _MBCS /Gm /EHsc /RTC1 /MDd /GS /fp:precise /Zc:wchar_t /Zc:forScope /Zc:inline /Fo"DEBUG\\" /Fd"DEBUG\VC141.PDB" /Gd /TP /analyze- C:\USERS\LUCAS\DESKTOP\ENGINE-COPY\ENGINE\TESTENGINE\GAME.CPP
^C:\USERS\LUCAS\DESKTOP\ENGINE-COPY\ENGINE\TESTENGINE\MAIN.CPP
/c /I"C:\USERS\LUCAS\DESKTOP\ENGINE-COPY\ENGINE\EXTERNAL\ASSIMP\INCLUDE" /I"C:\USERS\LUCAS\DESKTOP\ENGINE-COPY\ENGINE\ENGINEDLL\\" /I"C:\USERS\LUCAS\DESKTOP\ENGINE-COPY\ENGINE\EXTERNAL\GLEW-2.1.0\INCLUDE" /I"C:\USERS\LUCAS\DESKTOP\ENGINE-COPY\ENGINE\EXTERNAL\GLFW-3.2.1\INCLUDE" /I"C:\USERS\LUCAS\DESKTOP\ENGINE-COPY\ENGINE\EXTERNAL\GLM-0.9.9.0" /ZI /nologo /W3 /WX- /diagnostics:classic /sdl /Od /Oy- /D _MBCS /Gm /EHsc /RTC1 /MDd /GS /fp:precise /Zc:wchar_t /Zc:forScope /Zc:inline /Fo"DEBUG\\" /Fd"DEBUG\VC141.PDB" /Gd /TP /analyze- C:\USERS\LUCAS\DESKTOP\ENGINE-COPY\ENGINE\TESTENGINE\MAIN.CPP
^C:\USERS\LUCAS\DESKTOP\ENGINE-COPY\ENGINE\TESTENGINE\PLAYER.CPP
/c /I"C:\USERS\LUCAS\DESKTOP\ENGINE-COPY\ENGINE\EXTERNAL\ASSIMP\INCLUDE" /I"C:\USERS\LUCAS\DESKTOP\ENGINE-COPY\ENGINE\ENGINEDLL\\" /I"C:\USERS\LUCAS\DESKTOP\ENGINE-COPY\ENGINE\EXTERNAL\GLEW-2.1.0\INCLUDE" /I"C:\USERS\LUCAS\DESKTOP\ENGINE-COPY\ENGINE\EXTERNAL\GLFW-3.2.1\INCLUDE" /I"C:\USERS\LUCAS\DESKTOP\ENGINE-COPY\ENGINE\EXTERNAL\GLM-0.9.9.0" /ZI /nologo /W3 /WX- /diagnostics:classic /sdl /Od /Oy- /D _MBCS /Gm /EHsc /RTC1 /MDd /GS /fp:precise /Zc:wchar_t /Zc:forScope /Zc:inline /Fo"DEBUG\\" /Fd"DEBUG\VC141.PDB" /Gd /TP /analyze- C:\USERS\LUCAS\DESKTOP\ENGINE-COPY\ENGINE\TESTENGINE\PLAYER.CPP
