^C:\USERS\LUCAS\DESKTOP\ENGINE\ENGINE\ENGINEDLL\ANIMATION.CPP
/c /IC:\USERS\LUCAS\DESKTOP\ENGINE\ENGINE\EXTERNAL\ASSIMP\INCLUDE /I"C:\USERS\LUCAS\DESKTOP\ENGINE\ENGINE\EXTERNAL\GLEW-2.1.0\INCLUDE" /I"C:\USERS\LUCAS\DESKTOP\ENGINE\ENGINE\EXTERNAL\GLFW-3.2.1\INCLUDE" /I"C:\USERS\LUCAS\DESKTOP\ENGINE\ENGINE\EXTERNAL\GLM-0.9.9.0" /I"C:\PROGRAM FILES (X86)\VISUAL LEAK DETECTOR\INCLUDE" /ZI /nologo /W3 /WX- /diagnostics:classic /sdl /Od /Oy- /D _WINDLL /D _WINDLL /D _MBCS /D ENGINEDLL_EXPORTS /Gm /EHsc /RTC1 /MDd /GS /fp:precise /Zc:wchar_t /Zc:forScope /Zc:inline /Fo"DEBUG\\" /Fd"DEBUG\VC141.PDB" /Gd /TP /analyze- C:\USERS\LUCAS\DESKTOP\ENGINE\ENGINE\ENGINEDLL\ANIMATION.CPP
^C:\USERS\LUCAS\DESKTOP\ENGINE\ENGINE\ENGINEDLL\CUBE.CPP
/c /IC:\USERS\LUCAS\DESKTOP\ENGINE\ENGINE\EXTERNAL\ASSIMP\INCLUDE /I"C:\USERS\LUCAS\DESKTOP\ENGINE\ENGINE\EXTERNAL\GLEW-2.1.0\INCLUDE" /I"C:\USERS\LUCAS\DESKTOP\ENGINE\ENGINE\EXTERNAL\GLFW-3.2.1\INCLUDE" /I"C:\USERS\LUCAS\DESKTOP\ENGINE\ENGINE\EXTERNAL\GLM-0.9.9.0" /I"C:\PROGRAM FILES (X86)\VISUAL LEAK DETECTOR\INCLUDE" /ZI /nologo /W3 /WX- /diagnostics:classic /sdl /Od /Oy- /D _WINDLL /D _WINDLL /D _MBCS /D ENGINEDLL_EXPORTS /Gm /EHsc /RTC1 /MDd /GS /fp:precise /Zc:wchar_t /Zc:forScope /Zc:inline /Fo"DEBUG\\" /Fd"DEBUG\VC141.PDB" /Gd /TP /analyze- C:\USERS\LUCAS\DESKTOP\ENGINE\ENGINE\ENGINEDLL\CUBE.CPP
^C:\USERS\LUCAS\DESKTOP\ENGINE\ENGINE\ENGINEDLL\MESH_NOASSIMP.CPP
/c /IC:\USERS\LUCAS\DESKTOP\ENGINE\ENGINE\EXTERNAL\ASSIMP\INCLUDE /I"C:\USERS\LUCAS\DESKTOP\ENGINE\ENGINE\EXTERNAL\GLEW-2.1.0\INCLUDE" /I"C:\USERS\LUCAS\DESKTOP\ENGINE\ENGINE\EXTERNAL\GLFW-3.2.1\INCLUDE" /I"C:\USERS\LUCAS\DESKTOP\ENGINE\ENGINE\EXTERNAL\GLM-0.9.9.0" /I"C:\PROGRAM FILES (X86)\VISUAL LEAK DETECTOR\INCLUDE" /ZI /nologo /W3 /WX- /diagnostics:classic /sdl /Od /Oy- /D _WINDLL /D _WINDLL /D _MBCS /D ENGINEDLL_EXPORTS /Gm /EHsc /RTC1 /MDd /GS /fp:precise /Zc:wchar_t /Zc:forScope /Zc:inline /Fo"DEBUG\\" /Fd"DEBUG\VC141.PDB" /Gd /TP /analyze- C:\USERS\LUCAS\DESKTOP\ENGINE\ENGINE\ENGINEDLL\MESH_NOASSIMP.CPP
^C:\USERS\LUCAS\DESKTOP\ENGINE\ENGINE\ENGINEDLL\MODEL.CPP
/c /IC:\USERS\LUCAS\DESKTOP\ENGINE\ENGINE\EXTERNAL\ASSIMP\INCLUDE /I"C:\USERS\LUCAS\DESKTOP\ENGINE\ENGINE\EXTERNAL\GLEW-2.1.0\INCLUDE" /I"C:\USERS\LUCAS\DESKTOP\ENGINE\ENGINE\EXTERNAL\GLFW-3.2.1\INCLUDE" /I"C:\USERS\LUCAS\DESKTOP\ENGINE\ENGINE\EXTERNAL\GLM-0.9.9.0" /I"C:\PROGRAM FILES (X86)\VISUAL LEAK DETECTOR\INCLUDE" /ZI /nologo /W3 /WX- /diagnostics:classic /sdl /Od /Oy- /D _WINDLL /D _WINDLL /D _MBCS /D ENGINEDLL_EXPORTS /Gm /EHsc /RTC1 /MDd /GS /fp:precise /Zc:wchar_t /Zc:forScope /Zc:inline /Fo"DEBUG\\" /Fd"DEBUG\VC141.PDB" /Gd /TP /analyze- C:\USERS\LUCAS\DESKTOP\ENGINE\ENGINE\ENGINEDLL\MODEL.CPP
^C:\USERS\LUCAS\DESKTOP\ENGINE\ENGINE\ENGINEDLL\MODELIMPORTER.CPP
/c /IC:\USERS\LUCAS\DESKTOP\ENGINE\ENGINE\EXTERNAL\ASSIMP\INCLUDE /I"C:\USERS\LUCAS\DESKTOP\ENGINE\ENGINE\EXTERNAL\GLEW-2.1.0\INCLUDE" /I"C:\USERS\LUCAS\DESKTOP\ENGINE\ENGINE\EXTERNAL\GLFW-3.2.1\INCLUDE" /I"C:\USERS\LUCAS\DESKTOP\ENGINE\ENGINE\EXTERNAL\GLM-0.9.9.0" /I"C:\PROGRAM FILES (X86)\VISUAL LEAK DETECTOR\INCLUDE" /ZI /nologo /W3 /WX- /diagnostics:classic /sdl /Od /Oy- /D _WINDLL /D _WINDLL /D _MBCS /D ENGINEDLL_EXPORTS /Gm /EHsc /RTC1 /MDd /GS /fp:precise /Zc:wchar_t /Zc:forScope /Zc:inline /Fo"DEBUG\\" /Fd"DEBUG\VC141.PDB" /Gd /TP /analyze- C:\USERS\LUCAS\DESKTOP\ENGINE\ENGINE\ENGINEDLL\MODELIMPORTER.CPP
^C:\USERS\LUCAS\DESKTOP\ENGINE\ENGINE\ENGINEDLL\NEWCAMERA.CPP
/c /IC:\USERS\LUCAS\DESKTOP\ENGINE\ENGINE\EXTERNAL\ASSIMP\INCLUDE /I"C:\USERS\LUCAS\DESKTOP\ENGINE\ENGINE\EXTERNAL\GLEW-2.1.0\INCLUDE" /I"C:\USERS\LUCAS\DESKTOP\ENGINE\ENGINE\EXTERNAL\GLFW-3.2.1\INCLUDE" /I"C:\USERS\LUCAS\DESKTOP\ENGINE\ENGINE\EXTERNAL\GLM-0.9.9.0" /I"C:\PROGRAM FILES (X86)\VISUAL LEAK DETECTOR\INCLUDE" /ZI /nologo /W3 /WX- /diagnostics:classic /sdl /Od /Oy- /D _WINDLL /D _WINDLL /D _MBCS /D ENGINEDLL_EXPORTS /Gm /EHsc /RTC1 /MDd /GS /fp:precise /Zc:wchar_t /Zc:forScope /Zc:inline /Fo"DEBUG\\" /Fd"DEBUG\VC141.PDB" /Gd /TP /analyze- C:\USERS\LUCAS\DESKTOP\ENGINE\ENGINE\ENGINEDLL\NEWCAMERA.CPP
^C:\USERS\LUCAS\DESKTOP\ENGINE\ENGINE\ENGINEDLL\CIRCLE.CPP
/c /IC:\USERS\LUCAS\DESKTOP\ENGINE\ENGINE\EXTERNAL\ASSIMP\INCLUDE /I"C:\USERS\LUCAS\DESKTOP\ENGINE\ENGINE\EXTERNAL\GLEW-2.1.0\INCLUDE" /I"C:\USERS\LUCAS\DESKTOP\ENGINE\ENGINE\EXTERNAL\GLFW-3.2.1\INCLUDE" /I"C:\USERS\LUCAS\DESKTOP\ENGINE\ENGINE\EXTERNAL\GLM-0.9.9.0" /I"C:\PROGRAM FILES (X86)\VISUAL LEAK DETECTOR\INCLUDE" /ZI /nologo /W3 /WX- /diagnostics:classic /sdl /Od /Oy- /D _WINDLL /D _WINDLL /D _MBCS /D ENGINEDLL_EXPORTS /Gm /EHsc /RTC1 /MDd /GS /fp:precise /Zc:wchar_t /Zc:forScope /Zc:inline /Fo"DEBUG\\" /Fd"DEBUG\VC141.PDB" /Gd /TP /analyze- C:\USERS\LUCAS\DESKTOP\ENGINE\ENGINE\ENGINEDLL\CIRCLE.CPP
^C:\USERS\LUCAS\DESKTOP\ENGINE\ENGINE\ENGINEDLL\COLLISIONMANAGER.CPP
/c /IC:\USERS\LUCAS\DESKTOP\ENGINE\ENGINE\EXTERNAL\ASSIMP\INCLUDE /I"C:\USERS\LUCAS\DESKTOP\ENGINE\ENGINE\EXTERNAL\GLEW-2.1.0\INCLUDE" /I"C:\USERS\LUCAS\DESKTOP\ENGINE\ENGINE\EXTERNAL\GLFW-3.2.1\INCLUDE" /I"C:\USERS\LUCAS\DESKTOP\ENGINE\ENGINE\EXTERNAL\GLM-0.9.9.0" /I"C:\PROGRAM FILES (X86)\VISUAL LEAK DETECTOR\INCLUDE" /ZI /nologo /W3 /WX- /diagnostics:classic /sdl /Od /Oy- /D _WINDLL /D _WINDLL /D _MBCS /D ENGINEDLL_EXPORTS /Gm /EHsc /RTC1 /MDd /GS /fp:precise /Zc:wchar_t /Zc:forScope /Zc:inline /Fo"DEBUG\\" /Fd"DEBUG\VC141.PDB" /Gd /TP /analyze- C:\USERS\LUCAS\DESKTOP\ENGINE\ENGINE\ENGINEDLL\COLLISIONMANAGER.CPP
^C:\USERS\LUCAS\DESKTOP\ENGINE\ENGINE\ENGINEDLL\DEFINITIONS.CPP
/c /IC:\USERS\LUCAS\DESKTOP\ENGINE\ENGINE\EXTERNAL\ASSIMP\INCLUDE /I"C:\USERS\LUCAS\DESKTOP\ENGINE\ENGINE\EXTERNAL\GLEW-2.1.0\INCLUDE" /I"C:\USERS\LUCAS\DESKTOP\ENGINE\ENGINE\EXTERNAL\GLFW-3.2.1\INCLUDE" /I"C:\USERS\LUCAS\DESKTOP\ENGINE\ENGINE\EXTERNAL\GLM-0.9.9.0" /I"C:\PROGRAM FILES (X86)\VISUAL LEAK DETECTOR\INCLUDE" /ZI /nologo /W3 /WX- /diagnostics:classic /sdl /Od /Oy- /D _WINDLL /D _WINDLL /D _MBCS /D ENGINEDLL_EXPORTS /Gm /EHsc /RTC1 /MDd /GS /fp:precise /Zc:wchar_t /Zc:forScope /Zc:inline /Fo"DEBUG\\" /Fd"DEBUG\VC141.PDB" /Gd /TP /analyze- C:\USERS\LUCAS\DESKTOP\ENGINE\ENGINE\ENGINEDLL\DEFINITIONS.CPP
^C:\USERS\LUCAS\DESKTOP\ENGINE\ENGINE\ENGINEDLL\ENTITY.CPP
/c /IC:\USERS\LUCAS\DESKTOP\ENGINE\ENGINE\EXTERNAL\ASSIMP\INCLUDE /I"C:\USERS\LUCAS\DESKTOP\ENGINE\ENGINE\EXTERNAL\GLEW-2.1.0\INCLUDE" /I"C:\USERS\LUCAS\DESKTOP\ENGINE\ENGINE\EXTERNAL\GLFW-3.2.1\INCLUDE" /I"C:\USERS\LUCAS\DESKTOP\ENGINE\ENGINE\EXTERNAL\GLM-0.9.9.0" /I"C:\PROGRAM FILES (X86)\VISUAL LEAK DETECTOR\INCLUDE" /ZI /nologo /W3 /WX- /diagnostics:classic /sdl /Od /Oy- /D _WINDLL /D _WINDLL /D _MBCS /D ENGINEDLL_EXPORTS /Gm /EHsc /RTC1 /MDd /GS /fp:precise /Zc:wchar_t /Zc:forScope /Zc:inline /Fo"DEBUG\\" /Fd"DEBUG\VC141.PDB" /Gd /TP /analyze- C:\USERS\LUCAS\DESKTOP\ENGINE\ENGINE\ENGINEDLL\ENTITY.CPP
^C:\USERS\LUCAS\DESKTOP\ENGINE\ENGINE\ENGINEDLL\GAMEBASE.CPP
/c /IC:\USERS\LUCAS\DESKTOP\ENGINE\ENGINE\EXTERNAL\ASSIMP\INCLUDE /I"C:\USERS\LUCAS\DESKTOP\ENGINE\ENGINE\EXTERNAL\GLEW-2.1.0\INCLUDE" /I"C:\USERS\LUCAS\DESKTOP\ENGINE\ENGINE\EXTERNAL\GLFW-3.2.1\INCLUDE" /I"C:\USERS\LUCAS\DESKTOP\ENGINE\ENGINE\EXTERNAL\GLM-0.9.9.0" /I"C:\PROGRAM FILES (X86)\VISUAL LEAK DETECTOR\INCLUDE" /ZI /nologo /W3 /WX- /diagnostics:classic /sdl /Od /Oy- /D _WINDLL /D _WINDLL /D _MBCS /D ENGINEDLL_EXPORTS /Gm /EHsc /RTC1 /MDd /GS /fp:precise /Zc:wchar_t /Zc:forScope /Zc:inline /Fo"DEBUG\\" /Fd"DEBUG\VC141.PDB" /Gd /TP /analyze- C:\USERS\LUCAS\DESKTOP\ENGINE\ENGINE\ENGINEDLL\GAMEBASE.CPP
^C:\USERS\LUCAS\DESKTOP\ENGINE\ENGINE\ENGINEDLL\INPUT.CPP
/c /IC:\USERS\LUCAS\DESKTOP\ENGINE\ENGINE\EXTERNAL\ASSIMP\INCLUDE /I"C:\USERS\LUCAS\DESKTOP\ENGINE\ENGINE\EXTERNAL\GLEW-2.1.0\INCLUDE" /I"C:\USERS\LUCAS\DESKTOP\ENGINE\ENGINE\EXTERNAL\GLFW-3.2.1\INCLUDE" /I"C:\USERS\LUCAS\DESKTOP\ENGINE\ENGINE\EXTERNAL\GLM-0.9.9.0" /I"C:\PROGRAM FILES (X86)\VISUAL LEAK DETECTOR\INCLUDE" /ZI /nologo /W3 /WX- /diagnostics:classic /sdl /Od /Oy- /D _WINDLL /D _WINDLL /D _MBCS /D ENGINEDLL_EXPORTS /Gm /EHsc /RTC1 /MDd /GS /fp:precise /Zc:wchar_t /Zc:forScope /Zc:inline /Fo"DEBUG\\" /Fd"DEBUG\VC141.PDB" /Gd /TP /analyze- C:\USERS\LUCAS\DESKTOP\ENGINE\ENGINE\ENGINEDLL\INPUT.CPP
^C:\USERS\LUCAS\DESKTOP\ENGINE\ENGINE\ENGINEDLL\MATERIAL.CPP
/c /IC:\USERS\LUCAS\DESKTOP\ENGINE\ENGINE\EXTERNAL\ASSIMP\INCLUDE /I"C:\USERS\LUCAS\DESKTOP\ENGINE\ENGINE\EXTERNAL\GLEW-2.1.0\INCLUDE" /I"C:\USERS\LUCAS\DESKTOP\ENGINE\ENGINE\EXTERNAL\GLFW-3.2.1\INCLUDE" /I"C:\USERS\LUCAS\DESKTOP\ENGINE\ENGINE\EXTERNAL\GLM-0.9.9.0" /I"C:\PROGRAM FILES (X86)\VISUAL LEAK DETECTOR\INCLUDE" /ZI /nologo /W3 /WX- /diagnostics:classic /sdl /Od /Oy- /D _WINDLL /D _WINDLL /D _MBCS /D ENGINEDLL_EXPORTS /Gm /EHsc /RTC1 /MDd /GS /fp:precise /Zc:wchar_t /Zc:forScope /Zc:inline /Fo"DEBUG\\" /Fd"DEBUG\VC141.PDB" /Gd /TP /analyze- C:\USERS\LUCAS\DESKTOP\ENGINE\ENGINE\ENGINEDLL\MATERIAL.CPP
^C:\USERS\LUCAS\DESKTOP\ENGINE\ENGINE\ENGINEDLL\MESH.CPP
/c /IC:\USERS\LUCAS\DESKTOP\ENGINE\ENGINE\EXTERNAL\ASSIMP\INCLUDE /I"C:\USERS\LUCAS\DESKTOP\ENGINE\ENGINE\EXTERNAL\GLEW-2.1.0\INCLUDE" /I"C:\USERS\LUCAS\DESKTOP\ENGINE\ENGINE\EXTERNAL\GLFW-3.2.1\INCLUDE" /I"C:\USERS\LUCAS\DESKTOP\ENGINE\ENGINE\EXTERNAL\GLM-0.9.9.0" /I"C:\PROGRAM FILES (X86)\VISUAL LEAK DETECTOR\INCLUDE" /ZI /nologo /W3 /WX- /diagnostics:classic /sdl /Od /Oy- /D _WINDLL /D _WINDLL /D _MBCS /D ENGINEDLL_EXPORTS /Gm /EHsc /RTC1 /MDd /GS /fp:precise /Zc:wchar_t /Zc:forScope /Zc:inline /Fo"DEBUG\\" /Fd"DEBUG\VC141.PDB" /Gd /TP /analyze- C:\USERS\LUCAS\DESKTOP\ENGINE\ENGINE\ENGINEDLL\MESH.CPP
^C:\USERS\LUCAS\DESKTOP\ENGINE\ENGINE\ENGINEDLL\RECTANGLE.CPP
/c /IC:\USERS\LUCAS\DESKTOP\ENGINE\ENGINE\EXTERNAL\ASSIMP\INCLUDE /I"C:\USERS\LUCAS\DESKTOP\ENGINE\ENGINE\EXTERNAL\GLEW-2.1.0\INCLUDE" /I"C:\USERS\LUCAS\DESKTOP\ENGINE\ENGINE\EXTERNAL\GLFW-3.2.1\INCLUDE" /I"C:\USERS\LUCAS\DESKTOP\ENGINE\ENGINE\EXTERNAL\GLM-0.9.9.0" /I"C:\PROGRAM FILES (X86)\VISUAL LEAK DETECTOR\INCLUDE" /ZI /nologo /W3 /WX- /diagnostics:classic /sdl /Od /Oy- /D _WINDLL /D _WINDLL /D _MBCS /D ENGINEDLL_EXPORTS /Gm /EHsc /RTC1 /MDd /GS /fp:precise /Zc:wchar_t /Zc:forScope /Zc:inline /Fo"DEBUG\\" /Fd"DEBUG\VC141.PDB" /Gd /TP /analyze- C:\USERS\LUCAS\DESKTOP\ENGINE\ENGINE\ENGINEDLL\RECTANGLE.CPP
^C:\USERS\LUCAS\DESKTOP\ENGINE\ENGINE\ENGINEDLL\RENDERER.CPP
/c /IC:\USERS\LUCAS\DESKTOP\ENGINE\ENGINE\EXTERNAL\ASSIMP\INCLUDE /I"C:\USERS\LUCAS\DESKTOP\ENGINE\ENGINE\EXTERNAL\GLEW-2.1.0\INCLUDE" /I"C:\USERS\LUCAS\DESKTOP\ENGINE\ENGINE\EXTERNAL\GLFW-3.2.1\INCLUDE" /I"C:\USERS\LUCAS\DESKTOP\ENGINE\ENGINE\EXTERNAL\GLM-0.9.9.0" /I"C:\PROGRAM FILES (X86)\VISUAL LEAK DETECTOR\INCLUDE" /ZI /nologo /W3 /WX- /diagnostics:classic /sdl /Od /Oy- /D _WINDLL /D _WINDLL /D _MBCS /D ENGINEDLL_EXPORTS /Gm /EHsc /RTC1 /MDd /GS /fp:precise /Zc:wchar_t /Zc:forScope /Zc:inline /Fo"DEBUG\\" /Fd"DEBUG\VC141.PDB" /Gd /TP /analyze- C:\USERS\LUCAS\DESKTOP\ENGINE\ENGINE\ENGINEDLL\RENDERER.CPP
^C:\USERS\LUCAS\DESKTOP\ENGINE\ENGINE\ENGINEDLL\SHAPE.CPP
/c /IC:\USERS\LUCAS\DESKTOP\ENGINE\ENGINE\EXTERNAL\ASSIMP\INCLUDE /I"C:\USERS\LUCAS\DESKTOP\ENGINE\ENGINE\EXTERNAL\GLEW-2.1.0\INCLUDE" /I"C:\USERS\LUCAS\DESKTOP\ENGINE\ENGINE\EXTERNAL\GLFW-3.2.1\INCLUDE" /I"C:\USERS\LUCAS\DESKTOP\ENGINE\ENGINE\EXTERNAL\GLM-0.9.9.0" /I"C:\PROGRAM FILES (X86)\VISUAL LEAK DETECTOR\INCLUDE" /ZI /nologo /W3 /WX- /diagnostics:classic /sdl /Od /Oy- /D _WINDLL /D _WINDLL /D _MBCS /D ENGINEDLL_EXPORTS /Gm /EHsc /RTC1 /MDd /GS /fp:precise /Zc:wchar_t /Zc:forScope /Zc:inline /Fo"DEBUG\\" /Fd"DEBUG\VC141.PDB" /Gd /TP /analyze- C:\USERS\LUCAS\DESKTOP\ENGINE\ENGINE\ENGINEDLL\SHAPE.CPP
^C:\USERS\LUCAS\DESKTOP\ENGINE\ENGINE\ENGINEDLL\SPRITE.CPP
/c /IC:\USERS\LUCAS\DESKTOP\ENGINE\ENGINE\EXTERNAL\ASSIMP\INCLUDE /I"C:\USERS\LUCAS\DESKTOP\ENGINE\ENGINE\EXTERNAL\GLEW-2.1.0\INCLUDE" /I"C:\USERS\LUCAS\DESKTOP\ENGINE\ENGINE\EXTERNAL\GLFW-3.2.1\INCLUDE" /I"C:\USERS\LUCAS\DESKTOP\ENGINE\ENGINE\EXTERNAL\GLM-0.9.9.0" /I"C:\PROGRAM FILES (X86)\VISUAL LEAK DETECTOR\INCLUDE" /ZI /nologo /W3 /WX- /diagnostics:classic /sdl /Od /Oy- /D _WINDLL /D _WINDLL /D _MBCS /D ENGINEDLL_EXPORTS /Gm /EHsc /RTC1 /MDd /GS /fp:precise /Zc:wchar_t /Zc:forScope /Zc:inline /Fo"DEBUG\\" /Fd"DEBUG\VC141.PDB" /Gd /TP /analyze- C:\USERS\LUCAS\DESKTOP\ENGINE\ENGINE\ENGINEDLL\SPRITE.CPP
^C:\USERS\LUCAS\DESKTOP\ENGINE\ENGINE\ENGINEDLL\TEXTUREIMPORTER.CPP
/c /IC:\USERS\LUCAS\DESKTOP\ENGINE\ENGINE\EXTERNAL\ASSIMP\INCLUDE /I"C:\USERS\LUCAS\DESKTOP\ENGINE\ENGINE\EXTERNAL\GLEW-2.1.0\INCLUDE" /I"C:\USERS\LUCAS\DESKTOP\ENGINE\ENGINE\EXTERNAL\GLFW-3.2.1\INCLUDE" /I"C:\USERS\LUCAS\DESKTOP\ENGINE\ENGINE\EXTERNAL\GLM-0.9.9.0" /I"C:\PROGRAM FILES (X86)\VISUAL LEAK DETECTOR\INCLUDE" /ZI /nologo /W3 /WX- /diagnostics:classic /sdl /Od /Oy- /D _WINDLL /D _WINDLL /D _MBCS /D ENGINEDLL_EXPORTS /Gm /EHsc /RTC1 /MDd /GS /fp:precise /Zc:wchar_t /Zc:forScope /Zc:inline /Fo"DEBUG\\" /Fd"DEBUG\VC141.PDB" /Gd /TP /analyze- C:\USERS\LUCAS\DESKTOP\ENGINE\ENGINE\ENGINEDLL\TEXTUREIMPORTER.CPP
^C:\USERS\LUCAS\DESKTOP\ENGINE\ENGINE\ENGINEDLL\TILEMAP.CPP
/c /IC:\USERS\LUCAS\DESKTOP\ENGINE\ENGINE\EXTERNAL\ASSIMP\INCLUDE /I"C:\USERS\LUCAS\DESKTOP\ENGINE\ENGINE\EXTERNAL\GLEW-2.1.0\INCLUDE" /I"C:\USERS\LUCAS\DESKTOP\ENGINE\ENGINE\EXTERNAL\GLFW-3.2.1\INCLUDE" /I"C:\USERS\LUCAS\DESKTOP\ENGINE\ENGINE\EXTERNAL\GLM-0.9.9.0" /I"C:\PROGRAM FILES (X86)\VISUAL LEAK DETECTOR\INCLUDE" /ZI /nologo /W3 /WX- /diagnostics:classic /sdl /Od /Oy- /D _WINDLL /D _WINDLL /D _MBCS /D ENGINEDLL_EXPORTS /Gm /EHsc /RTC1 /MDd /GS /fp:precise /Zc:wchar_t /Zc:forScope /Zc:inline /Fo"DEBUG\\" /Fd"DEBUG\VC141.PDB" /Gd /TP /analyze- C:\USERS\LUCAS\DESKTOP\ENGINE\ENGINE\ENGINEDLL\TILEMAP.CPP
^C:\USERS\LUCAS\DESKTOP\ENGINE\ENGINE\ENGINEDLL\TRIANGLE.CPP
/c /IC:\USERS\LUCAS\DESKTOP\ENGINE\ENGINE\EXTERNAL\ASSIMP\INCLUDE /I"C:\USERS\LUCAS\DESKTOP\ENGINE\ENGINE\EXTERNAL\GLEW-2.1.0\INCLUDE" /I"C:\USERS\LUCAS\DESKTOP\ENGINE\ENGINE\EXTERNAL\GLFW-3.2.1\INCLUDE" /I"C:\USERS\LUCAS\DESKTOP\ENGINE\ENGINE\EXTERNAL\GLM-0.9.9.0" /I"C:\PROGRAM FILES (X86)\VISUAL LEAK DETECTOR\INCLUDE" /ZI /nologo /W3 /WX- /diagnostics:classic /sdl /Od /Oy- /D _WINDLL /D _WINDLL /D _MBCS /D ENGINEDLL_EXPORTS /Gm /EHsc /RTC1 /MDd /GS /fp:precise /Zc:wchar_t /Zc:forScope /Zc:inline /Fo"DEBUG\\" /Fd"DEBUG\VC141.PDB" /Gd /TP /analyze- C:\USERS\LUCAS\DESKTOP\ENGINE\ENGINE\ENGINEDLL\TRIANGLE.CPP
^C:\USERS\LUCAS\DESKTOP\ENGINE\ENGINE\ENGINEDLL\WINDOW.CPP
/c /IC:\USERS\LUCAS\DESKTOP\ENGINE\ENGINE\EXTERNAL\ASSIMP\INCLUDE /I"C:\USERS\LUCAS\DESKTOP\ENGINE\ENGINE\EXTERNAL\GLEW-2.1.0\INCLUDE" /I"C:\USERS\LUCAS\DESKTOP\ENGINE\ENGINE\EXTERNAL\GLFW-3.2.1\INCLUDE" /I"C:\USERS\LUCAS\DESKTOP\ENGINE\ENGINE\EXTERNAL\GLM-0.9.9.0" /I"C:\PROGRAM FILES (X86)\VISUAL LEAK DETECTOR\INCLUDE" /ZI /nologo /W3 /WX- /diagnostics:classic /sdl /Od /Oy- /D _WINDLL /D _WINDLL /D _MBCS /D ENGINEDLL_EXPORTS /Gm /EHsc /RTC1 /MDd /GS /fp:precise /Zc:wchar_t /Zc:forScope /Zc:inline /Fo"DEBUG\\" /Fd"DEBUG\VC141.PDB" /Gd /TP /analyze- C:\USERS\LUCAS\DESKTOP\ENGINE\ENGINE\ENGINEDLL\WINDOW.CPP
^C:\USERS\LUCAS\DESKTOP\ENGINE-COPY\ENGINE\ENGINEDLL\ANIMATION.CPP
/c /I"C:\USERS\LUCAS\DESKTOP\ENGINE-COPY\ENGINE\EXTERNAL\ASSIMP\INCLUDE" /I"C:\USERS\LUCAS\DESKTOP\ENGINE-COPY\ENGINE\EXTERNAL\GLEW-2.1.0\INCLUDE" /I"C:\USERS\LUCAS\DESKTOP\ENGINE-COPY\ENGINE\EXTERNAL\GLFW-3.2.1\INCLUDE" /I"C:\USERS\LUCAS\DESKTOP\ENGINE-COPY\ENGINE\EXTERNAL\GLM-0.9.9.0" /I"C:\PROGRAM FILES (X86)\VISUAL LEAK DETECTOR\INCLUDE" /ZI /nologo /W3 /WX- /diagnostics:classic /sdl /Od /Oy- /D _WINDLL /D _WINDLL /D _MBCS /D ENGINEDLL_EXPORTS /Gm /EHsc /RTC1 /MDd /GS /fp:precise /Zc:wchar_t /Zc:forScope /Zc:inline /Fo"DEBUG\\" /Fd"DEBUG\VC141.PDB" /Gd /TP /analyze- C:\USERS\LUCAS\DESKTOP\ENGINE-COPY\ENGINE\ENGINEDLL\ANIMATION.CPP
^C:\USERS\LUCAS\DESKTOP\ENGINE-COPY\ENGINE\ENGINEDLL\COMPONENTE.CPP
/c /I"C:\USERS\LUCAS\DESKTOP\ENGINE-COPY\ENGINE\EXTERNAL\ASSIMP\INCLUDE" /I"C:\USERS\LUCAS\DESKTOP\ENGINE-COPY\ENGINE\EXTERNAL\GLEW-2.1.0\INCLUDE" /I"C:\USERS\LUCAS\DESKTOP\ENGINE-COPY\ENGINE\EXTERNAL\GLFW-3.2.1\INCLUDE" /I"C:\USERS\LUCAS\DESKTOP\ENGINE-COPY\ENGINE\EXTERNAL\GLM-0.9.9.0" /I"C:\PROGRAM FILES (X86)\VISUAL LEAK DETECTOR\INCLUDE" /ZI /nologo /W3 /WX- /diagnostics:classic /sdl /Od /Oy- /D _WINDLL /D _WINDLL /D _MBCS /D ENGINEDLL_EXPORTS /Gm /EHsc /RTC1 /MDd /GS /fp:precise /Zc:wchar_t /Zc:forScope /Zc:inline /Fo"DEBUG\\" /Fd"DEBUG\VC141.PDB" /Gd /TP /analyze- C:\USERS\LUCAS\DESKTOP\ENGINE-COPY\ENGINE\ENGINEDLL\COMPONENTE.CPP
^C:\USERS\LUCAS\DESKTOP\ENGINE-COPY\ENGINE\ENGINEDLL\COSO.CPP
/c /I"C:\USERS\LUCAS\DESKTOP\ENGINE-COPY\ENGINE\EXTERNAL\ASSIMP\INCLUDE" /I"C:\USERS\LUCAS\DESKTOP\ENGINE-COPY\ENGINE\EXTERNAL\GLEW-2.1.0\INCLUDE" /I"C:\USERS\LUCAS\DESKTOP\ENGINE-COPY\ENGINE\EXTERNAL\GLFW-3.2.1\INCLUDE" /I"C:\USERS\LUCAS\DESKTOP\ENGINE-COPY\ENGINE\EXTERNAL\GLM-0.9.9.0" /I"C:\PROGRAM FILES (X86)\VISUAL LEAK DETECTOR\INCLUDE" /ZI /nologo /W3 /WX- /diagnostics:classic /sdl /Od /Oy- /D _WINDLL /D _WINDLL /D _MBCS /D ENGINEDLL_EXPORTS /Gm /EHsc /RTC1 /MDd /GS /fp:precise /Zc:wchar_t /Zc:forScope /Zc:inline /Fo"DEBUG\\" /Fd"DEBUG\VC141.PDB" /Gd /TP /analyze- C:\USERS\LUCAS\DESKTOP\ENGINE-COPY\ENGINE\ENGINEDLL\COSO.CPP
^C:\USERS\LUCAS\DESKTOP\ENGINE-COPY\ENGINE\ENGINEDLL\CUBE.CPP
/c /I"C:\USERS\LUCAS\DESKTOP\ENGINE-COPY\ENGINE\EXTERNAL\ASSIMP\INCLUDE" /I"C:\USERS\LUCAS\DESKTOP\ENGINE-COPY\ENGINE\EXTERNAL\GLEW-2.1.0\INCLUDE" /I"C:\USERS\LUCAS\DESKTOP\ENGINE-COPY\ENGINE\EXTERNAL\GLFW-3.2.1\INCLUDE" /I"C:\USERS\LUCAS\DESKTOP\ENGINE-COPY\ENGINE\EXTERNAL\GLM-0.9.9.0" /I"C:\PROGRAM FILES (X86)\VISUAL LEAK DETECTOR\INCLUDE" /ZI /nologo /W3 /WX- /diagnostics:classic /sdl /Od /Oy- /D _WINDLL /D _WINDLL /D _MBCS /D ENGINEDLL_EXPORTS /Gm /EHsc /RTC1 /MDd /GS /fp:precise /Zc:wchar_t /Zc:forScope /Zc:inline /Fo"DEBUG\\" /Fd"DEBUG\VC141.PDB" /Gd /TP /analyze- C:\USERS\LUCAS\DESKTOP\ENGINE-COPY\ENGINE\ENGINEDLL\CUBE.CPP
^C:\USERS\LUCAS\DESKTOP\ENGINE-COPY\ENGINE\ENGINEDLL\MESH_NOASSIMP.CPP
/c /I"C:\USERS\LUCAS\DESKTOP\ENGINE-COPY\ENGINE\EXTERNAL\ASSIMP\INCLUDE" /I"C:\USERS\LUCAS\DESKTOP\ENGINE-COPY\ENGINE\EXTERNAL\GLEW-2.1.0\INCLUDE" /I"C:\USERS\LUCAS\DESKTOP\ENGINE-COPY\ENGINE\EXTERNAL\GLFW-3.2.1\INCLUDE" /I"C:\USERS\LUCAS\DESKTOP\ENGINE-COPY\ENGINE\EXTERNAL\GLM-0.9.9.0" /I"C:\PROGRAM FILES (X86)\VISUAL LEAK DETECTOR\INCLUDE" /ZI /nologo /W3 /WX- /diagnostics:classic /sdl /Od /Oy- /D _WINDLL /D _WINDLL /D _MBCS /D ENGINEDLL_EXPORTS /Gm /EHsc /RTC1 /MDd /GS /fp:precise /Zc:wchar_t /Zc:forScope /Zc:inline /Fo"DEBUG\\" /Fd"DEBUG\VC141.PDB" /Gd /TP /analyze- C:\USERS\LUCAS\DESKTOP\ENGINE-COPY\ENGINE\ENGINEDLL\MESH_NOASSIMP.CPP
^C:\USERS\LUCAS\DESKTOP\ENGINE-COPY\ENGINE\ENGINEDLL\MODEL.CPP
/c /I"C:\USERS\LUCAS\DESKTOP\ENGINE-COPY\ENGINE\EXTERNAL\ASSIMP\INCLUDE" /I"C:\USERS\LUCAS\DESKTOP\ENGINE-COPY\ENGINE\EXTERNAL\GLEW-2.1.0\INCLUDE" /I"C:\USERS\LUCAS\DESKTOP\ENGINE-COPY\ENGINE\EXTERNAL\GLFW-3.2.1\INCLUDE" /I"C:\USERS\LUCAS\DESKTOP\ENGINE-COPY\ENGINE\EXTERNAL\GLM-0.9.9.0" /I"C:\PROGRAM FILES (X86)\VISUAL LEAK DETECTOR\INCLUDE" /ZI /nologo /W3 /WX- /diagnostics:classic /sdl /Od /Oy- /D _WINDLL /D _WINDLL /D _MBCS /D ENGINEDLL_EXPORTS /Gm /EHsc /RTC1 /MDd /GS /fp:precise /Zc:wchar_t /Zc:forScope /Zc:inline /Fo"DEBUG\\" /Fd"DEBUG\VC141.PDB" /Gd /TP /analyze- C:\USERS\LUCAS\DESKTOP\ENGINE-COPY\ENGINE\ENGINEDLL\MODEL.CPP
^C:\USERS\LUCAS\DESKTOP\ENGINE-COPY\ENGINE\ENGINEDLL\MODELIMPORTER.CPP
/c /I"C:\USERS\LUCAS\DESKTOP\ENGINE-COPY\ENGINE\EXTERNAL\ASSIMP\INCLUDE" /I"C:\USERS\LUCAS\DESKTOP\ENGINE-COPY\ENGINE\EXTERNAL\GLEW-2.1.0\INCLUDE" /I"C:\USERS\LUCAS\DESKTOP\ENGINE-COPY\ENGINE\EXTERNAL\GLFW-3.2.1\INCLUDE" /I"C:\USERS\LUCAS\DESKTOP\ENGINE-COPY\ENGINE\EXTERNAL\GLM-0.9.9.0" /I"C:\PROGRAM FILES (X86)\VISUAL LEAK DETECTOR\INCLUDE" /ZI /nologo /W3 /WX- /diagnostics:classic /sdl /Od /Oy- /D _WINDLL /D _WINDLL /D _MBCS /D ENGINEDLL_EXPORTS /Gm /EHsc /RTC1 /MDd /GS /fp:precise /Zc:wchar_t /Zc:forScope /Zc:inline /Fo"DEBUG\\" /Fd"DEBUG\VC141.PDB" /Gd /TP /analyze- C:\USERS\LUCAS\DESKTOP\ENGINE-COPY\ENGINE\ENGINEDLL\MODELIMPORTER.CPP
^C:\USERS\LUCAS\DESKTOP\ENGINE-COPY\ENGINE\ENGINEDLL\NEWCAMERA.CPP
/c /I"C:\USERS\LUCAS\DESKTOP\ENGINE-COPY\ENGINE\EXTERNAL\ASSIMP\INCLUDE" /I"C:\USERS\LUCAS\DESKTOP\ENGINE-COPY\ENGINE\EXTERNAL\GLEW-2.1.0\INCLUDE" /I"C:\USERS\LUCAS\DESKTOP\ENGINE-COPY\ENGINE\EXTERNAL\GLFW-3.2.1\INCLUDE" /I"C:\USERS\LUCAS\DESKTOP\ENGINE-COPY\ENGINE\EXTERNAL\GLM-0.9.9.0" /I"C:\PROGRAM FILES (X86)\VISUAL LEAK DETECTOR\INCLUDE" /ZI /nologo /W3 /WX- /diagnostics:classic /sdl /Od /Oy- /D _WINDLL /D _WINDLL /D _MBCS /D ENGINEDLL_EXPORTS /Gm /EHsc /RTC1 /MDd /GS /fp:precise /Zc:wchar_t /Zc:forScope /Zc:inline /Fo"DEBUG\\" /Fd"DEBUG\VC141.PDB" /Gd /TP /analyze- C:\USERS\LUCAS\DESKTOP\ENGINE-COPY\ENGINE\ENGINEDLL\NEWCAMERA.CPP
^C:\USERS\LUCAS\DESKTOP\ENGINE-COPY\ENGINE\ENGINEDLL\CIRCLE.CPP
/c /I"C:\USERS\LUCAS\DESKTOP\ENGINE-COPY\ENGINE\EXTERNAL\ASSIMP\INCLUDE" /I"C:\USERS\LUCAS\DESKTOP\ENGINE-COPY\ENGINE\EXTERNAL\GLEW-2.1.0\INCLUDE" /I"C:\USERS\LUCAS\DESKTOP\ENGINE-COPY\ENGINE\EXTERNAL\GLFW-3.2.1\INCLUDE" /I"C:\USERS\LUCAS\DESKTOP\ENGINE-COPY\ENGINE\EXTERNAL\GLM-0.9.9.0" /I"C:\PROGRAM FILES (X86)\VISUAL LEAK DETECTOR\INCLUDE" /ZI /nologo /W3 /WX- /diagnostics:classic /sdl /Od /Oy- /D _WINDLL /D _WINDLL /D _MBCS /D ENGINEDLL_EXPORTS /Gm /EHsc /RTC1 /MDd /GS /fp:precise /Zc:wchar_t /Zc:forScope /Zc:inline /Fo"DEBUG\\" /Fd"DEBUG\VC141.PDB" /Gd /TP /analyze- C:\USERS\LUCAS\DESKTOP\ENGINE-COPY\ENGINE\ENGINEDLL\CIRCLE.CPP
^C:\USERS\LUCAS\DESKTOP\ENGINE-COPY\ENGINE\ENGINEDLL\COLLISIONMANAGER.CPP
/c /I"C:\USERS\LUCAS\DESKTOP\ENGINE-COPY\ENGINE\EXTERNAL\ASSIMP\INCLUDE" /I"C:\USERS\LUCAS\DESKTOP\ENGINE-COPY\ENGINE\EXTERNAL\GLEW-2.1.0\INCLUDE" /I"C:\USERS\LUCAS\DESKTOP\ENGINE-COPY\ENGINE\EXTERNAL\GLFW-3.2.1\INCLUDE" /I"C:\USERS\LUCAS\DESKTOP\ENGINE-COPY\ENGINE\EXTERNAL\GLM-0.9.9.0" /I"C:\PROGRAM FILES (X86)\VISUAL LEAK DETECTOR\INCLUDE" /ZI /nologo /W3 /WX- /diagnostics:classic /sdl /Od /Oy- /D _WINDLL /D _WINDLL /D _MBCS /D ENGINEDLL_EXPORTS /Gm /EHsc /RTC1 /MDd /GS /fp:precise /Zc:wchar_t /Zc:forScope /Zc:inline /Fo"DEBUG\\" /Fd"DEBUG\VC141.PDB" /Gd /TP /analyze- C:\USERS\LUCAS\DESKTOP\ENGINE-COPY\ENGINE\ENGINEDLL\COLLISIONMANAGER.CPP
^C:\USERS\LUCAS\DESKTOP\ENGINE-COPY\ENGINE\ENGINEDLL\DEFINITIONS.CPP
/c /I"C:\USERS\LUCAS\DESKTOP\ENGINE-COPY\ENGINE\EXTERNAL\ASSIMP\INCLUDE" /I"C:\USERS\LUCAS\DESKTOP\ENGINE-COPY\ENGINE\EXTERNAL\GLEW-2.1.0\INCLUDE" /I"C:\USERS\LUCAS\DESKTOP\ENGINE-COPY\ENGINE\EXTERNAL\GLFW-3.2.1\INCLUDE" /I"C:\USERS\LUCAS\DESKTOP\ENGINE-COPY\ENGINE\EXTERNAL\GLM-0.9.9.0" /I"C:\PROGRAM FILES (X86)\VISUAL LEAK DETECTOR\INCLUDE" /ZI /nologo /W3 /WX- /diagnostics:classic /sdl /Od /Oy- /D _WINDLL /D _WINDLL /D _MBCS /D ENGINEDLL_EXPORTS /Gm /EHsc /RTC1 /MDd /GS /fp:precise /Zc:wchar_t /Zc:forScope /Zc:inline /Fo"DEBUG\\" /Fd"DEBUG\VC141.PDB" /Gd /TP /analyze- C:\USERS\LUCAS\DESKTOP\ENGINE-COPY\ENGINE\ENGINEDLL\DEFINITIONS.CPP
^C:\USERS\LUCAS\DESKTOP\ENGINE-COPY\ENGINE\ENGINEDLL\ENTITY.CPP
/c /I"C:\USERS\LUCAS\DESKTOP\ENGINE-COPY\ENGINE\EXTERNAL\ASSIMP\INCLUDE" /I"C:\USERS\LUCAS\DESKTOP\ENGINE-COPY\ENGINE\EXTERNAL\GLEW-2.1.0\INCLUDE" /I"C:\USERS\LUCAS\DESKTOP\ENGINE-COPY\ENGINE\EXTERNAL\GLFW-3.2.1\INCLUDE" /I"C:\USERS\LUCAS\DESKTOP\ENGINE-COPY\ENGINE\EXTERNAL\GLM-0.9.9.0" /I"C:\PROGRAM FILES (X86)\VISUAL LEAK DETECTOR\INCLUDE" /ZI /nologo /W3 /WX- /diagnostics:classic /sdl /Od /Oy- /D _WINDLL /D _WINDLL /D _MBCS /D ENGINEDLL_EXPORTS /Gm /EHsc /RTC1 /MDd /GS /fp:precise /Zc:wchar_t /Zc:forScope /Zc:inline /Fo"DEBUG\\" /Fd"DEBUG\VC141.PDB" /Gd /TP /analyze- C:\USERS\LUCAS\DESKTOP\ENGINE-COPY\ENGINE\ENGINEDLL\ENTITY.CPP
^C:\USERS\LUCAS\DESKTOP\ENGINE-COPY\ENGINE\ENGINEDLL\GAMEBASE.CPP
/c /I"C:\USERS\LUCAS\DESKTOP\ENGINE-COPY\ENGINE\EXTERNAL\ASSIMP\INCLUDE" /I"C:\USERS\LUCAS\DESKTOP\ENGINE-COPY\ENGINE\EXTERNAL\GLEW-2.1.0\INCLUDE" /I"C:\USERS\LUCAS\DESKTOP\ENGINE-COPY\ENGINE\EXTERNAL\GLFW-3.2.1\INCLUDE" /I"C:\USERS\LUCAS\DESKTOP\ENGINE-COPY\ENGINE\EXTERNAL\GLM-0.9.9.0" /I"C:\PROGRAM FILES (X86)\VISUAL LEAK DETECTOR\INCLUDE" /ZI /nologo /W3 /WX- /diagnostics:classic /sdl /Od /Oy- /D _WINDLL /D _WINDLL /D _MBCS /D ENGINEDLL_EXPORTS /Gm /EHsc /RTC1 /MDd /GS /fp:precise /Zc:wchar_t /Zc:forScope /Zc:inline /Fo"DEBUG\\" /Fd"DEBUG\VC141.PDB" /Gd /TP /analyze- C:\USERS\LUCAS\DESKTOP\ENGINE-COPY\ENGINE\ENGINEDLL\GAMEBASE.CPP
^C:\USERS\LUCAS\DESKTOP\ENGINE-COPY\ENGINE\ENGINEDLL\INPUT.CPP
/c /I"C:\USERS\LUCAS\DESKTOP\ENGINE-COPY\ENGINE\EXTERNAL\ASSIMP\INCLUDE" /I"C:\USERS\LUCAS\DESKTOP\ENGINE-COPY\ENGINE\EXTERNAL\GLEW-2.1.0\INCLUDE" /I"C:\USERS\LUCAS\DESKTOP\ENGINE-COPY\ENGINE\EXTERNAL\GLFW-3.2.1\INCLUDE" /I"C:\USERS\LUCAS\DESKTOP\ENGINE-COPY\ENGINE\EXTERNAL\GLM-0.9.9.0" /I"C:\PROGRAM FILES (X86)\VISUAL LEAK DETECTOR\INCLUDE" /ZI /nologo /W3 /WX- /diagnostics:classic /sdl /Od /Oy- /D _WINDLL /D _WINDLL /D _MBCS /D ENGINEDLL_EXPORTS /Gm /EHsc /RTC1 /MDd /GS /fp:precise /Zc:wchar_t /Zc:forScope /Zc:inline /Fo"DEBUG\\" /Fd"DEBUG\VC141.PDB" /Gd /TP /analyze- C:\USERS\LUCAS\DESKTOP\ENGINE-COPY\ENGINE\ENGINEDLL\INPUT.CPP
^C:\USERS\LUCAS\DESKTOP\ENGINE-COPY\ENGINE\ENGINEDLL\MATERIAL.CPP
/c /I"C:\USERS\LUCAS\DESKTOP\ENGINE-COPY\ENGINE\EXTERNAL\ASSIMP\INCLUDE" /I"C:\USERS\LUCAS\DESKTOP\ENGINE-COPY\ENGINE\EXTERNAL\GLEW-2.1.0\INCLUDE" /I"C:\USERS\LUCAS\DESKTOP\ENGINE-COPY\ENGINE\EXTERNAL\GLFW-3.2.1\INCLUDE" /I"C:\USERS\LUCAS\DESKTOP\ENGINE-COPY\ENGINE\EXTERNAL\GLM-0.9.9.0" /I"C:\PROGRAM FILES (X86)\VISUAL LEAK DETECTOR\INCLUDE" /ZI /nologo /W3 /WX- /diagnostics:classic /sdl /Od /Oy- /D _WINDLL /D _WINDLL /D _MBCS /D ENGINEDLL_EXPORTS /Gm /EHsc /RTC1 /MDd /GS /fp:precise /Zc:wchar_t /Zc:forScope /Zc:inline /Fo"DEBUG\\" /Fd"DEBUG\VC141.PDB" /Gd /TP /analyze- C:\USERS\LUCAS\DESKTOP\ENGINE-COPY\ENGINE\ENGINEDLL\MATERIAL.CPP
^C:\USERS\LUCAS\DESKTOP\ENGINE-COPY\ENGINE\ENGINEDLL\MESH.CPP
/c /I"C:\USERS\LUCAS\DESKTOP\ENGINE-COPY\ENGINE\EXTERNAL\ASSIMP\INCLUDE" /I"C:\USERS\LUCAS\DESKTOP\ENGINE-COPY\ENGINE\EXTERNAL\GLEW-2.1.0\INCLUDE" /I"C:\USERS\LUCAS\DESKTOP\ENGINE-COPY\ENGINE\EXTERNAL\GLFW-3.2.1\INCLUDE" /I"C:\USERS\LUCAS\DESKTOP\ENGINE-COPY\ENGINE\EXTERNAL\GLM-0.9.9.0" /I"C:\PROGRAM FILES (X86)\VISUAL LEAK DETECTOR\INCLUDE" /ZI /nologo /W3 /WX- /diagnostics:classic /sdl /Od /Oy- /D _WINDLL /D _WINDLL /D _MBCS /D ENGINEDLL_EXPORTS /Gm /EHsc /RTC1 /MDd /GS /fp:precise /Zc:wchar_t /Zc:forScope /Zc:inline /Fo"DEBUG\\" /Fd"DEBUG\VC141.PDB" /Gd /TP /analyze- C:\USERS\LUCAS\DESKTOP\ENGINE-COPY\ENGINE\ENGINEDLL\MESH.CPP
^C:\USERS\LUCAS\DESKTOP\ENGINE-COPY\ENGINE\ENGINEDLL\RECTANGLE.CPP
/c /I"C:\USERS\LUCAS\DESKTOP\ENGINE-COPY\ENGINE\EXTERNAL\ASSIMP\INCLUDE" /I"C:\USERS\LUCAS\DESKTOP\ENGINE-COPY\ENGINE\EXTERNAL\GLEW-2.1.0\INCLUDE" /I"C:\USERS\LUCAS\DESKTOP\ENGINE-COPY\ENGINE\EXTERNAL\GLFW-3.2.1\INCLUDE" /I"C:\USERS\LUCAS\DESKTOP\ENGINE-COPY\ENGINE\EXTERNAL\GLM-0.9.9.0" /I"C:\PROGRAM FILES (X86)\VISUAL LEAK DETECTOR\INCLUDE" /ZI /nologo /W3 /WX- /diagnostics:classic /sdl /Od /Oy- /D _WINDLL /D _WINDLL /D _MBCS /D ENGINEDLL_EXPORTS /Gm /EHsc /RTC1 /MDd /GS /fp:precise /Zc:wchar_t /Zc:forScope /Zc:inline /Fo"DEBUG\\" /Fd"DEBUG\VC141.PDB" /Gd /TP /analyze- C:\USERS\LUCAS\DESKTOP\ENGINE-COPY\ENGINE\ENGINEDLL\RECTANGLE.CPP
^C:\USERS\LUCAS\DESKTOP\ENGINE-COPY\ENGINE\ENGINEDLL\RENDERER.CPP
/c /I"C:\USERS\LUCAS\DESKTOP\ENGINE-COPY\ENGINE\EXTERNAL\ASSIMP\INCLUDE" /I"C:\USERS\LUCAS\DESKTOP\ENGINE-COPY\ENGINE\EXTERNAL\GLEW-2.1.0\INCLUDE" /I"C:\USERS\LUCAS\DESKTOP\ENGINE-COPY\ENGINE\EXTERNAL\GLFW-3.2.1\INCLUDE" /I"C:\USERS\LUCAS\DESKTOP\ENGINE-COPY\ENGINE\EXTERNAL\GLM-0.9.9.0" /I"C:\PROGRAM FILES (X86)\VISUAL LEAK DETECTOR\INCLUDE" /ZI /nologo /W3 /WX- /diagnostics:classic /sdl /Od /Oy- /D _WINDLL /D _WINDLL /D _MBCS /D ENGINEDLL_EXPORTS /Gm /EHsc /RTC1 /MDd /GS /fp:precise /Zc:wchar_t /Zc:forScope /Zc:inline /Fo"DEBUG\\" /Fd"DEBUG\VC141.PDB" /Gd /TP /analyze- C:\USERS\LUCAS\DESKTOP\ENGINE-COPY\ENGINE\ENGINEDLL\RENDERER.CPP
^C:\USERS\LUCAS\DESKTOP\ENGINE-COPY\ENGINE\ENGINEDLL\SHAPE.CPP
/c /I"C:\USERS\LUCAS\DESKTOP\ENGINE-COPY\ENGINE\EXTERNAL\ASSIMP\INCLUDE" /I"C:\USERS\LUCAS\DESKTOP\ENGINE-COPY\ENGINE\EXTERNAL\GLEW-2.1.0\INCLUDE" /I"C:\USERS\LUCAS\DESKTOP\ENGINE-COPY\ENGINE\EXTERNAL\GLFW-3.2.1\INCLUDE" /I"C:\USERS\LUCAS\DESKTOP\ENGINE-COPY\ENGINE\EXTERNAL\GLM-0.9.9.0" /I"C:\PROGRAM FILES (X86)\VISUAL LEAK DETECTOR\INCLUDE" /ZI /nologo /W3 /WX- /diagnostics:classic /sdl /Od /Oy- /D _WINDLL /D _WINDLL /D _MBCS /D ENGINEDLL_EXPORTS /Gm /EHsc /RTC1 /MDd /GS /fp:precise /Zc:wchar_t /Zc:forScope /Zc:inline /Fo"DEBUG\\" /Fd"DEBUG\VC141.PDB" /Gd /TP /analyze- C:\USERS\LUCAS\DESKTOP\ENGINE-COPY\ENGINE\ENGINEDLL\SHAPE.CPP
^C:\USERS\LUCAS\DESKTOP\ENGINE-COPY\ENGINE\ENGINEDLL\SPRITE.CPP
/c /I"C:\USERS\LUCAS\DESKTOP\ENGINE-COPY\ENGINE\EXTERNAL\ASSIMP\INCLUDE" /I"C:\USERS\LUCAS\DESKTOP\ENGINE-COPY\ENGINE\EXTERNAL\GLEW-2.1.0\INCLUDE" /I"C:\USERS\LUCAS\DESKTOP\ENGINE-COPY\ENGINE\EXTERNAL\GLFW-3.2.1\INCLUDE" /I"C:\USERS\LUCAS\DESKTOP\ENGINE-COPY\ENGINE\EXTERNAL\GLM-0.9.9.0" /I"C:\PROGRAM FILES (X86)\VISUAL LEAK DETECTOR\INCLUDE" /ZI /nologo /W3 /WX- /diagnostics:classic /sdl /Od /Oy- /D _WINDLL /D _WINDLL /D _MBCS /D ENGINEDLL_EXPORTS /Gm /EHsc /RTC1 /MDd /GS /fp:precise /Zc:wchar_t /Zc:forScope /Zc:inline /Fo"DEBUG\\" /Fd"DEBUG\VC141.PDB" /Gd /TP /analyze- C:\USERS\LUCAS\DESKTOP\ENGINE-COPY\ENGINE\ENGINEDLL\SPRITE.CPP
^C:\USERS\LUCAS\DESKTOP\ENGINE-COPY\ENGINE\ENGINEDLL\TEXTUREIMPORTER.CPP
/c /I"C:\USERS\LUCAS\DESKTOP\ENGINE-COPY\ENGINE\EXTERNAL\ASSIMP\INCLUDE" /I"C:\USERS\LUCAS\DESKTOP\ENGINE-COPY\ENGINE\EXTERNAL\GLEW-2.1.0\INCLUDE" /I"C:\USERS\LUCAS\DESKTOP\ENGINE-COPY\ENGINE\EXTERNAL\GLFW-3.2.1\INCLUDE" /I"C:\USERS\LUCAS\DESKTOP\ENGINE-COPY\ENGINE\EXTERNAL\GLM-0.9.9.0" /I"C:\PROGRAM FILES (X86)\VISUAL LEAK DETECTOR\INCLUDE" /ZI /nologo /W3 /WX- /diagnostics:classic /sdl /Od /Oy- /D _WINDLL /D _WINDLL /D _MBCS /D ENGINEDLL_EXPORTS /Gm /EHsc /RTC1 /MDd /GS /fp:precise /Zc:wchar_t /Zc:forScope /Zc:inline /Fo"DEBUG\\" /Fd"DEBUG\VC141.PDB" /Gd /TP /analyze- C:\USERS\LUCAS\DESKTOP\ENGINE-COPY\ENGINE\ENGINEDLL\TEXTUREIMPORTER.CPP
^C:\USERS\LUCAS\DESKTOP\ENGINE-COPY\ENGINE\ENGINEDLL\TILEMAP.CPP
/c /I"C:\USERS\LUCAS\DESKTOP\ENGINE-COPY\ENGINE\EXTERNAL\ASSIMP\INCLUDE" /I"C:\USERS\LUCAS\DESKTOP\ENGINE-COPY\ENGINE\EXTERNAL\GLEW-2.1.0\INCLUDE" /I"C:\USERS\LUCAS\DESKTOP\ENGINE-COPY\ENGINE\EXTERNAL\GLFW-3.2.1\INCLUDE" /I"C:\USERS\LUCAS\DESKTOP\ENGINE-COPY\ENGINE\EXTERNAL\GLM-0.9.9.0" /I"C:\PROGRAM FILES (X86)\VISUAL LEAK DETECTOR\INCLUDE" /ZI /nologo /W3 /WX- /diagnostics:classic /sdl /Od /Oy- /D _WINDLL /D _WINDLL /D _MBCS /D ENGINEDLL_EXPORTS /Gm /EHsc /RTC1 /MDd /GS /fp:precise /Zc:wchar_t /Zc:forScope /Zc:inline /Fo"DEBUG\\" /Fd"DEBUG\VC141.PDB" /Gd /TP /analyze- C:\USERS\LUCAS\DESKTOP\ENGINE-COPY\ENGINE\ENGINEDLL\TILEMAP.CPP
^C:\USERS\LUCAS\DESKTOP\ENGINE-COPY\ENGINE\ENGINEDLL\TRIANGLE.CPP
/c /I"C:\USERS\LUCAS\DESKTOP\ENGINE-COPY\ENGINE\EXTERNAL\ASSIMP\INCLUDE" /I"C:\USERS\LUCAS\DESKTOP\ENGINE-COPY\ENGINE\EXTERNAL\GLEW-2.1.0\INCLUDE" /I"C:\USERS\LUCAS\DESKTOP\ENGINE-COPY\ENGINE\EXTERNAL\GLFW-3.2.1\INCLUDE" /I"C:\USERS\LUCAS\DESKTOP\ENGINE-COPY\ENGINE\EXTERNAL\GLM-0.9.9.0" /I"C:\PROGRAM FILES (X86)\VISUAL LEAK DETECTOR\INCLUDE" /ZI /nologo /W3 /WX- /diagnostics:classic /sdl /Od /Oy- /D _WINDLL /D _WINDLL /D _MBCS /D ENGINEDLL_EXPORTS /Gm /EHsc /RTC1 /MDd /GS /fp:precise /Zc:wchar_t /Zc:forScope /Zc:inline /Fo"DEBUG\\" /Fd"DEBUG\VC141.PDB" /Gd /TP /analyze- C:\USERS\LUCAS\DESKTOP\ENGINE-COPY\ENGINE\ENGINEDLL\TRIANGLE.CPP
^C:\USERS\LUCAS\DESKTOP\ENGINE-COPY\ENGINE\ENGINEDLL\WINDOW.CPP
/c /I"C:\USERS\LUCAS\DESKTOP\ENGINE-COPY\ENGINE\EXTERNAL\ASSIMP\INCLUDE" /I"C:\USERS\LUCAS\DESKTOP\ENGINE-COPY\ENGINE\EXTERNAL\GLEW-2.1.0\INCLUDE" /I"C:\USERS\LUCAS\DESKTOP\ENGINE-COPY\ENGINE\EXTERNAL\GLFW-3.2.1\INCLUDE" /I"C:\USERS\LUCAS\DESKTOP\ENGINE-COPY\ENGINE\EXTERNAL\GLM-0.9.9.0" /I"C:\PROGRAM FILES (X86)\VISUAL LEAK DETECTOR\INCLUDE" /ZI /nologo /W3 /WX- /diagnostics:classic /sdl /Od /Oy- /D _WINDLL /D _WINDLL /D _MBCS /D ENGINEDLL_EXPORTS /Gm /EHsc /RTC1 /MDd /GS /fp:precise /Zc:wchar_t /Zc:forScope /Zc:inline /Fo"DEBUG\\" /Fd"DEBUG\VC141.PDB" /Gd /TP /analyze- C:\USERS\LUCAS\DESKTOP\ENGINE-COPY\ENGINE\ENGINEDLL\WINDOW.CPP
^C:\USERS\LUCAS\DESKTOP\ENGINE-COPY\ENGINE\ENGINEDLL\TRANSFORM.CPP
/c /I"C:\USERS\LUCAS\DESKTOP\ENGINE-COPY\ENGINE\EXTERNAL\ASSIMP\INCLUDE" /I"C:\USERS\LUCAS\DESKTOP\ENGINE-COPY\ENGINE\EXTERNAL\GLEW-2.1.0\INCLUDE" /I"C:\USERS\LUCAS\DESKTOP\ENGINE-COPY\ENGINE\EXTERNAL\GLFW-3.2.1\INCLUDE" /I"C:\USERS\LUCAS\DESKTOP\ENGINE-COPY\ENGINE\EXTERNAL\GLM-0.9.9.0" /I"C:\PROGRAM FILES (X86)\VISUAL LEAK DETECTOR\INCLUDE" /ZI /nologo /W3 /WX- /diagnostics:classic /sdl /Od /Oy- /D _WINDLL /D _WINDLL /D _MBCS /D ENGINEDLL_EXPORTS /Gm /EHsc /RTC1 /MDd /GS /fp:precise /Zc:wchar_t /Zc:forScope /Zc:inline /Fo"DEBUG\\" /Fd"DEBUG\VC141.PDB" /Gd /TP /analyze- C:\USERS\LUCAS\DESKTOP\ENGINE-COPY\ENGINE\ENGINEDLL\TRANSFORM.CPP
^C:\USERS\LUCAS\DESKTOP\ENGINE-COPY\ENGINE\ENGINEDLL\MATERIALCOMPONENT.CPP
/c /I"C:\USERS\LUCAS\DESKTOP\ENGINE-COPY\ENGINE\EXTERNAL\ASSIMP\INCLUDE" /I"C:\USERS\LUCAS\DESKTOP\ENGINE-COPY\ENGINE\EXTERNAL\GLEW-2.1.0\INCLUDE" /I"C:\USERS\LUCAS\DESKTOP\ENGINE-COPY\ENGINE\EXTERNAL\GLFW-3.2.1\INCLUDE" /I"C:\USERS\LUCAS\DESKTOP\ENGINE-COPY\ENGINE\EXTERNAL\GLM-0.9.9.0" /I"C:\PROGRAM FILES (X86)\VISUAL LEAK DETECTOR\INCLUDE" /ZI /nologo /W3 /WX- /diagnostics:classic /sdl /Od /Oy- /D _WINDLL /D _WINDLL /D _MBCS /D ENGINEDLL_EXPORTS /Gm /EHsc /RTC1 /MDd /GS /fp:precise /Zc:wchar_t /Zc:forScope /Zc:inline /Fo"DEBUG\\" /Fd"DEBUG\VC141.PDB" /Gd /TP /analyze- C:\USERS\LUCAS\DESKTOP\ENGINE-COPY\ENGINE\ENGINEDLL\MATERIALCOMPONENT.CPP
^C:\USERS\LUCAS\DESKTOP\ENGINE-COPY\ENGINE\ENGINEDLL\MESHRENDERER.CPP
/c /I"C:\USERS\LUCAS\DESKTOP\ENGINE-COPY\ENGINE\EXTERNAL\ASSIMP\INCLUDE" /I"C:\USERS\LUCAS\DESKTOP\ENGINE-COPY\ENGINE\EXTERNAL\GLEW-2.1.0\INCLUDE" /I"C:\USERS\LUCAS\DESKTOP\ENGINE-COPY\ENGINE\EXTERNAL\GLFW-3.2.1\INCLUDE" /I"C:\USERS\LUCAS\DESKTOP\ENGINE-COPY\ENGINE\EXTERNAL\GLM-0.9.9.0" /I"C:\PROGRAM FILES (X86)\VISUAL LEAK DETECTOR\INCLUDE" /ZI /nologo /W3 /WX- /diagnostics:classic /sdl /Od /Oy- /D _WINDLL /D _WINDLL /D _MBCS /D ENGINEDLL_EXPORTS /Gm /EHsc /RTC1 /MDd /GS /fp:precise /Zc:wchar_t /Zc:forScope /Zc:inline /Fo"DEBUG\\" /Fd"DEBUG\VC141.PDB" /Gd /TP /analyze- C:\USERS\LUCAS\DESKTOP\ENGINE-COPY\ENGINE\ENGINEDLL\MESHRENDERER.CPP
^C:\USERS\LUCAS\DESKTOP\ENGINE-COPY\ENGINE\ENGINEDLL\CAMERACOMPONENT.CPP
/c /I"C:\USERS\LUCAS\DESKTOP\ENGINE-COPY\ENGINE\EXTERNAL\ASSIMP\INCLUDE" /I"C:\USERS\LUCAS\DESKTOP\ENGINE-COPY\ENGINE\EXTERNAL\GLEW-2.1.0\INCLUDE" /I"C:\USERS\LUCAS\DESKTOP\ENGINE-COPY\ENGINE\EXTERNAL\GLFW-3.2.1\INCLUDE" /I"C:\USERS\LUCAS\DESKTOP\ENGINE-COPY\ENGINE\EXTERNAL\GLM-0.9.9.0" /I"C:\PROGRAM FILES (X86)\VISUAL LEAK DETECTOR\INCLUDE" /ZI /nologo /W3 /WX- /diagnostics:classic /sdl /Od /Oy- /D _WINDLL /D _WINDLL /D _MBCS /D ENGINEDLL_EXPORTS /Gm /EHsc /RTC1 /MDd /GS /fp:precise /Zc:wchar_t /Zc:forScope /Zc:inline /Fo"DEBUG\\" /Fd"DEBUG\VC141.PDB" /Gd /TP /analyze- C:\USERS\LUCAS\DESKTOP\ENGINE-COPY\ENGINE\ENGINEDLL\CAMERACOMPONENT.CPP
^C:\USERS\LUCAS\DESKTOP\ENGINE-COPY\ENGINE\ENGINEDLL\TREEMESHRENDERER.CPP
/c /I"C:\USERS\LUCAS\DESKTOP\ENGINE-COPY\ENGINE\EXTERNAL\ASSIMP\INCLUDE" /I"C:\USERS\LUCAS\DESKTOP\ENGINE-COPY\ENGINE\EXTERNAL\GLEW-2.1.0\INCLUDE" /I"C:\USERS\LUCAS\DESKTOP\ENGINE-COPY\ENGINE\EXTERNAL\GLFW-3.2.1\INCLUDE" /I"C:\USERS\LUCAS\DESKTOP\ENGINE-COPY\ENGINE\EXTERNAL\GLM-0.9.9.0" /I"C:\PROGRAM FILES (X86)\VISUAL LEAK DETECTOR\INCLUDE" /ZI /nologo /W3 /WX- /diagnostics:classic /sdl /Od /Oy- /D _WINDLL /D _WINDLL /D _MBCS /D ENGINEDLL_EXPORTS /Gm /EHsc /RTC1 /MDd /GS /fp:precise /Zc:wchar_t /Zc:forScope /Zc:inline /Fo"DEBUG\\" /Fd"DEBUG\VC141.PDB" /Gd /TP /analyze- C:\USERS\LUCAS\DESKTOP\ENGINE-COPY\ENGINE\ENGINEDLL\TREEMESHRENDERER.CPP
^C:\USERS\LUCAS\DESKTOP\ENGINE-COPY\ENGINE\ENGINEDLL\TREEMODEL.CPP
/c /I"C:\USERS\LUCAS\DESKTOP\ENGINE-COPY\ENGINE\EXTERNAL\ASSIMP\INCLUDE" /I"C:\USERS\LUCAS\DESKTOP\ENGINE-COPY\ENGINE\EXTERNAL\GLEW-2.1.0\INCLUDE" /I"C:\USERS\LUCAS\DESKTOP\ENGINE-COPY\ENGINE\EXTERNAL\GLFW-3.2.1\INCLUDE" /I"C:\USERS\LUCAS\DESKTOP\ENGINE-COPY\ENGINE\EXTERNAL\GLM-0.9.9.0" /I"C:\PROGRAM FILES (X86)\VISUAL LEAK DETECTOR\INCLUDE" /ZI /nologo /W3 /WX- /diagnostics:classic /sdl /Od /Oy- /D _WINDLL /D _WINDLL /D _MBCS /D ENGINEDLL_EXPORTS /Gm /EHsc /RTC1 /MDd /GS /fp:precise /Zc:wchar_t /Zc:forScope /Zc:inline /Fo"DEBUG\\" /Fd"DEBUG\VC141.PDB" /Gd /TP /analyze- C:\USERS\LUCAS\DESKTOP\ENGINE-COPY\ENGINE\ENGINEDLL\TREEMODEL.CPP
