^C:\USERS\LUCAS\DESKTOP\ENGINE\ENGINE\ENGINEDLL\DEBUG\ANIMATION.OBJ|C:\USERS\LUCAS\DESKTOP\ENGINE\ENGINE\ENGINEDLL\DEBUG\CIRCLE.OBJ|C:\USERS\LUCAS\DESKTOP\ENGINE\ENGINE\ENGINEDLL\DEBUG\COLLISIONMANAGER.OBJ|C:\USERS\LUCAS\DESKTOP\ENGINE\ENGINE\ENGINEDLL\DEBUG\CUBE.OBJ|C:\USERS\LUCAS\DESKTOP\ENGINE\ENGINE\ENGINEDLL\DEBUG\DEFINITIONS.OBJ|C:\USERS\LUCAS\DESKTOP\ENGINE\ENGINE\ENGINEDLL\DEBUG\ENTITY.OBJ|C:\USERS\LUCAS\DESKTOP\ENGINE\ENGINE\ENGINEDLL\DEBUG\GAMEBASE.OBJ|C:\USERS\LUCAS\DESKTOP\ENGINE\ENGINE\ENGINEDLL\DEBUG\INPUT.OBJ|C:\USERS\LUCAS\DESKTOP\ENGINE\ENGINE\ENGINEDLL\DEBUG\MATERIAL.OBJ|C:\USERS\LUCAS\DESKTOP\ENGINE\ENGINE\ENGINEDLL\DEBUG\MESH.OBJ|C:\USERS\LUCAS\DESKTOP\ENGINE\ENGINE\ENGINEDLL\DEBUG\MESH_NOASSIMP.OBJ|C:\USERS\LUCAS\DESKTOP\ENGINE\ENGINE\ENGINEDLL\DEBUG\MODEL.OBJ|C:\USERS\LUCAS\DESKTOP\ENGINE\ENGINE\ENGINEDLL\DEBUG\MODELIMPORTER.OBJ|C:\USERS\LUCAS\DESKTOP\ENGINE\ENGINE\ENGINEDLL\DEBUG\NEWCAMERA.OBJ|C:\USERS\LUCAS\DESKTOP\ENGINE\ENGINE\ENGINEDLL\DEBUG\RECTANGLE.OBJ|C:\USERS\LUCAS\DESKTOP\ENGINE\ENGINE\ENGINEDLL\DEBUG\RENDERER.OBJ|C:\USERS\LUCAS\DESKTOP\ENGINE\ENGINE\ENGINEDLL\DEBUG\SHAPE.OBJ|C:\USERS\LUCAS\DESKTOP\ENGINE\ENGINE\ENGINEDLL\DEBUG\SPRITE.OBJ|C:\USERS\LUCAS\DESKTOP\ENGINE\ENGINE\ENGINEDLL\DEBUG\TEXTUREIMPORTER.OBJ|C:\USERS\LUCAS\DESKTOP\ENGINE\ENGINE\ENGINEDLL\DEBUG\TILEMAP.OBJ|C:\USERS\LUCAS\DESKTOP\ENGINE\ENGINE\ENGINEDLL\DEBUG\TRIANGLE.OBJ|C:\USERS\LUCAS\DESKTOP\ENGINE\ENGINE\ENGINEDLL\DEBUG\WINDOW.OBJ
C:\WINDOWS\GLOBALIZATION\SORTING\SORTDEFAULT.NLS
C:\USERS\LUCAS\DESKTOP\ENGINE\ENGINE\EXTERNAL\ASSIMP\ASSIMP-VC140-MT.LIB
C:\PROGRAM FILES (X86)\WINDOWS KITS\10\LIB\10.0.17763.0\UM\X86\KERNEL32.LIB
C:\PROGRAM FILES (X86)\WINDOWS KITS\10\LIB\10.0.17763.0\UM\X86\USER32.LIB
C:\PROGRAM FILES (X86)\WINDOWS KITS\10\LIB\10.0.17763.0\UM\X86\GDI32.LIB
C:\PROGRAM FILES (X86)\WINDOWS KITS\10\LIB\10.0.17763.0\UM\X86\WINSPOOL.LIB
C:\PROGRAM FILES (X86)\WINDOWS KITS\10\LIB\10.0.17763.0\UM\X86\COMDLG32.LIB
C:\PROGRAM FILES (X86)\WINDOWS KITS\10\LIB\10.0.17763.0\UM\X86\ADVAPI32.LIB
C:\PROGRAM FILES (X86)\WINDOWS KITS\10\LIB\10.0.17763.0\UM\X86\SHELL32.LIB
C:\PROGRAM FILES (X86)\WINDOWS KITS\10\LIB\10.0.17763.0\UM\X86\OLE32.LIB
C:\PROGRAM FILES (X86)\WINDOWS KITS\10\LIB\10.0.17763.0\UM\X86\OLEAUT32.LIB
C:\PROGRAM FILES (X86)\WINDOWS KITS\10\LIB\10.0.17763.0\UM\X86\UUID.LIB
C:\PROGRAM FILES (X86)\WINDOWS KITS\10\LIB\10.0.17763.0\UM\X86\ODBC32.LIB
C:\PROGRAM FILES (X86)\WINDOWS KITS\10\LIB\10.0.17763.0\UM\X86\ODBCCP32.LIB
C:\USERS\LUCAS\DESKTOP\ENGINE\ENGINE\ENGINEDLL\DEBUG\ANIMATION.OBJ
C:\USERS\LUCAS\DESKTOP\ENGINE\ENGINE\ENGINEDLL\DEBUG\CUBE.OBJ
C:\USERS\LUCAS\DESKTOP\ENGINE\ENGINE\ENGINEDLL\DEBUG\MESH_NOASSIMP.OBJ
C:\USERS\LUCAS\DESKTOP\ENGINE\ENGINE\ENGINEDLL\DEBUG\MODEL.OBJ
C:\USERS\LUCAS\DESKTOP\ENGINE\ENGINE\ENGINEDLL\DEBUG\MODELIMPORTER.OBJ
C:\USERS\LUCAS\DESKTOP\ENGINE\ENGINE\ENGINEDLL\DEBUG\NEWCAMERA.OBJ
C:\USERS\LUCAS\DESKTOP\ENGINE\ENGINE\ENGINEDLL\DEBUG\CIRCLE.OBJ
C:\USERS\LUCAS\DESKTOP\ENGINE\ENGINE\ENGINEDLL\DEBUG\COLLISIONMANAGER.OBJ
C:\USERS\LUCAS\DESKTOP\ENGINE\ENGINE\ENGINEDLL\DEBUG\DEFINITIONS.OBJ
C:\USERS\LUCAS\DESKTOP\ENGINE\ENGINE\ENGINEDLL\DEBUG\ENTITY.OBJ
C:\USERS\LUCAS\DESKTOP\ENGINE\ENGINE\ENGINEDLL\DEBUG\GAMEBASE.OBJ
C:\USERS\LUCAS\DESKTOP\ENGINE\ENGINE\ENGINEDLL\DEBUG\INPUT.OBJ
C:\USERS\LUCAS\DESKTOP\ENGINE\ENGINE\ENGINEDLL\DEBUG\MATERIAL.OBJ
C:\USERS\LUCAS\DESKTOP\ENGINE\ENGINE\ENGINEDLL\DEBUG\MESH.OBJ
C:\USERS\LUCAS\DESKTOP\ENGINE\ENGINE\ENGINEDLL\DEBUG\RECTANGLE.OBJ
C:\USERS\LUCAS\DESKTOP\ENGINE\ENGINE\ENGINEDLL\DEBUG\RENDERER.OBJ
C:\USERS\LUCAS\DESKTOP\ENGINE\ENGINE\ENGINEDLL\DEBUG\SHAPE.OBJ
C:\USERS\LUCAS\DESKTOP\ENGINE\ENGINE\ENGINEDLL\DEBUG\SPRITE.OBJ
C:\USERS\LUCAS\DESKTOP\ENGINE\ENGINE\ENGINEDLL\DEBUG\TEXTUREIMPORTER.OBJ
C:\USERS\LUCAS\DESKTOP\ENGINE\ENGINE\ENGINEDLL\DEBUG\TILEMAP.OBJ
C:\USERS\LUCAS\DESKTOP\ENGINE\ENGINE\ENGINEDLL\DEBUG\TRIANGLE.OBJ
C:\USERS\LUCAS\DESKTOP\ENGINE\ENGINE\ENGINEDLL\DEBUG\WINDOW.OBJ
C:\WINDOWS\SYSTEM32\TZRES.DLL
C:\PROGRAM FILES (X86)\MICROSOFT VISUAL STUDIO\2017\COMMUNITY\VC\TOOLS\MSVC\14.10.25017\LIB\X86\MSVCPRTD.LIB
C:\PROGRAM FILES (X86)\MICROSOFT VISUAL STUDIO\2017\COMMUNITY\VC\TOOLS\MSVC\14.10.25017\LIB\X86\MSVCRTD.LIB
C:\PROGRAM FILES (X86)\MICROSOFT VISUAL STUDIO\2017\COMMUNITY\VC\TOOLS\MSVC\14.10.25017\LIB\X86\OLDNAMES.LIB
C:\USERS\LUCAS\DESKTOP\ENGINE\ENGINE\EXTERNAL\GLFW-3.2.1\LIB-VC2015\GLFW3.LIB
C:\USERS\LUCAS\DESKTOP\ENGINE\ENGINE\EXTERNAL\GLEW-2.1.0\LIB\RELEASE\WIN32\GLEW32.LIB
C:\PROGRAM FILES (X86)\WINDOWS KITS\10\LIB\10.0.17763.0\UM\X86\OPENGL32.LIB
C:\PROGRAM FILES (X86)\WINDOWS KITS\10\LIB\10.0.17763.0\UM\X86\GLU32.LIB
C:\PROGRAM FILES (X86)\MICROSOFT VISUAL STUDIO\2017\COMMUNITY\VC\TOOLS\MSVC\14.10.25017\LIB\X86\MSVCRT.LIB
C:\PROGRAM FILES (X86)\MICROSOFT VISUAL STUDIO\2017\COMMUNITY\VC\TOOLS\MSVC\14.10.25017\LIB\X86\VCRUNTIMED.LIB
C:\PROGRAM FILES (X86)\WINDOWS KITS\10\LIB\10.0.17763.0\UCRT\X86\UCRTD.LIB
C:\PROGRAM FILES (X86)\MICROSOFT VISUAL STUDIO\2017\COMMUNITY\VC\TOOLS\MSVC\14.10.25017\BIN\HOSTX86\X86\LINK.EXE
C:\PROGRAM FILES (X86)\MICROSOFT VISUAL STUDIO\2017\COMMUNITY\VC\TOOLS\MSVC\14.10.25017\BIN\HOSTX86\X86\1033\LINKUI.DLL
C:\PROGRAM FILES (X86)\WINDOWS KITS\10\BIN\10.0.17763.0\X86\RC.EXE
C:\PROGRAM FILES (X86)\MICROSOFT VISUAL STUDIO\2017\COMMUNITY\VC\TOOLS\MSVC\14.10.25017\BIN\HOSTX86\X86\CVTRES.EXE
^C:\USERS\LUCAS\DESKTOP\ENGINE-COPY\ENGINE\ENGINEDLL\DEBUG\ANIMATION.OBJ|C:\USERS\LUCAS\DESKTOP\ENGINE-COPY\ENGINE\ENGINEDLL\DEBUG\CAMERACOMPONENT.OBJ|C:\USERS\LUCAS\DESKTOP\ENGINE-COPY\ENGINE\ENGINEDLL\DEBUG\CIRCLE.OBJ|C:\USERS\LUCAS\DESKTOP\ENGINE-COPY\ENGINE\ENGINEDLL\DEBUG\COLLISIONMANAGER.OBJ|C:\USERS\LUCAS\DESKTOP\ENGINE-COPY\ENGINE\ENGINEDLL\DEBUG\COMPONENTE.OBJ|C:\USERS\LUCAS\DESKTOP\ENGINE-COPY\ENGINE\ENGINEDLL\DEBUG\COSO.OBJ|C:\USERS\LUCAS\DESKTOP\ENGINE-COPY\ENGINE\ENGINEDLL\DEBUG\CUBE.OBJ|C:\USERS\LUCAS\DESKTOP\ENGINE-COPY\ENGINE\ENGINEDLL\DEBUG\DEFINITIONS.OBJ|C:\USERS\LUCAS\DESKTOP\ENGINE-COPY\ENGINE\ENGINEDLL\DEBUG\ENTITY.OBJ|C:\USERS\LUCAS\DESKTOP\ENGINE-COPY\ENGINE\ENGINEDLL\DEBUG\GAMEBASE.OBJ|C:\USERS\LUCAS\DESKTOP\ENGINE-COPY\ENGINE\ENGINEDLL\DEBUG\INPUT.OBJ|C:\USERS\LUCAS\DESKTOP\ENGINE-COPY\ENGINE\ENGINEDLL\DEBUG\MATERIAL.OBJ|C:\USERS\LUCAS\DESKTOP\ENGINE-COPY\ENGINE\ENGINEDLL\DEBUG\MATERIALCOMPONENT.OBJ|C:\USERS\LUCAS\DESKTOP\ENGINE-COPY\ENGINE\ENGINEDLL\DEBUG\MESH.OBJ|C:\USERS\LUCAS\DESKTOP\ENGINE-COPY\ENGINE\ENGINEDLL\DEBUG\MESHRENDERER.OBJ|C:\USERS\LUCAS\DESKTOP\ENGINE-COPY\ENGINE\ENGINEDLL\DEBUG\MESH_NOASSIMP.OBJ|C:\USERS\LUCAS\DESKTOP\ENGINE-COPY\ENGINE\ENGINEDLL\DEBUG\MODEL.OBJ|C:\USERS\LUCAS\DESKTOP\ENGINE-COPY\ENGINE\ENGINEDLL\DEBUG\MODELIMPORTER.OBJ|C:\USERS\LUCAS\DESKTOP\ENGINE-COPY\ENGINE\ENGINEDLL\DEBUG\NEWCAMERA.OBJ|C:\USERS\LUCAS\DESKTOP\ENGINE-COPY\ENGINE\ENGINEDLL\DEBUG\RECTANGLE.OBJ|C:\USERS\LUCAS\DESKTOP\ENGINE-COPY\ENGINE\ENGINEDLL\DEBUG\RENDERER.OBJ|C:\USERS\LUCAS\DESKTOP\ENGINE-COPY\ENGINE\ENGINEDLL\DEBUG\SHAPE.OBJ|C:\USERS\LUCAS\DESKTOP\ENGINE-COPY\ENGINE\ENGINEDLL\DEBUG\SPRITE.OBJ|C:\USERS\LUCAS\DESKTOP\ENGINE-COPY\ENGINE\ENGINEDLL\DEBUG\TEXTUREIMPORTER.OBJ|C:\USERS\LUCAS\DESKTOP\ENGINE-COPY\ENGINE\ENGINEDLL\DEBUG\TILEMAP.OBJ|C:\USERS\LUCAS\DESKTOP\ENGINE-COPY\ENGINE\ENGINEDLL\DEBUG\TRANSFORM.OBJ|C:\USERS\LUCAS\DESKTOP\ENGINE-COPY\ENGINE\ENGINEDLL\DEBUG\TREEMESHRENDERER.OBJ|C:\USERS\LUCAS\DESKTOP\ENGINE-COPY\ENGINE\ENGINEDLL\DEBUG\TREEMODEL.OBJ|C:\USERS\LUCAS\DESKTOP\ENGINE-COPY\ENGINE\ENGINEDLL\DEBUG\TRIANGLE.OBJ|C:\USERS\LUCAS\DESKTOP\ENGINE-COPY\ENGINE\ENGINEDLL\DEBUG\WINDOW.OBJ
C:\WINDOWS\GLOBALIZATION\SORTING\SORTDEFAULT.NLS
C:\USERS\LUCAS\DESKTOP\ENGINE-COPY\ENGINE\EXTERNAL\ASSIMP\ASSIMP-VC140-MT.LIB
C:\PROGRAM FILES (X86)\WINDOWS KITS\10\LIB\10.0.17763.0\UM\X86\KERNEL32.LIB
C:\PROGRAM FILES (X86)\WINDOWS KITS\10\LIB\10.0.17763.0\UM\X86\USER32.LIB
C:\PROGRAM FILES (X86)\WINDOWS KITS\10\LIB\10.0.17763.0\UM\X86\GDI32.LIB
C:\PROGRAM FILES (X86)\WINDOWS KITS\10\LIB\10.0.17763.0\UM\X86\WINSPOOL.LIB
C:\PROGRAM FILES (X86)\WINDOWS KITS\10\LIB\10.0.17763.0\UM\X86\COMDLG32.LIB
C:\PROGRAM FILES (X86)\WINDOWS KITS\10\LIB\10.0.17763.0\UM\X86\ADVAPI32.LIB
C:\PROGRAM FILES (X86)\WINDOWS KITS\10\LIB\10.0.17763.0\UM\X86\SHELL32.LIB
C:\PROGRAM FILES (X86)\WINDOWS KITS\10\LIB\10.0.17763.0\UM\X86\OLE32.LIB
C:\PROGRAM FILES (X86)\WINDOWS KITS\10\LIB\10.0.17763.0\UM\X86\OLEAUT32.LIB
C:\PROGRAM FILES (X86)\WINDOWS KITS\10\LIB\10.0.17763.0\UM\X86\UUID.LIB
C:\PROGRAM FILES (X86)\WINDOWS KITS\10\LIB\10.0.17763.0\UM\X86\ODBC32.LIB
C:\PROGRAM FILES (X86)\WINDOWS KITS\10\LIB\10.0.17763.0\UM\X86\ODBCCP32.LIB
C:\USERS\LUCAS\DESKTOP\ENGINE-COPY\ENGINE\ENGINEDLL\DEBUG\ANIMATION.OBJ
C:\USERS\LUCAS\DESKTOP\ENGINE-COPY\ENGINE\ENGINEDLL\DEBUG\CAMERACOMPONENT.OBJ
C:\USERS\LUCAS\DESKTOP\ENGINE-COPY\ENGINE\ENGINEDLL\DEBUG\COMPONENTE.OBJ
C:\USERS\LUCAS\DESKTOP\ENGINE-COPY\ENGINE\ENGINEDLL\DEBUG\COSO.OBJ
C:\USERS\LUCAS\DESKTOP\ENGINE-COPY\ENGINE\ENGINEDLL\DEBUG\CUBE.OBJ
C:\USERS\LUCAS\DESKTOP\ENGINE-COPY\ENGINE\ENGINEDLL\DEBUG\MATERIALCOMPONENT.OBJ
C:\USERS\LUCAS\DESKTOP\ENGINE-COPY\ENGINE\ENGINEDLL\DEBUG\MESHRENDERER.OBJ
C:\USERS\LUCAS\DESKTOP\ENGINE-COPY\ENGINE\ENGINEDLL\DEBUG\MESH_NOASSIMP.OBJ
C:\USERS\LUCAS\DESKTOP\ENGINE-COPY\ENGINE\ENGINEDLL\DEBUG\MODEL.OBJ
C:\USERS\LUCAS\DESKTOP\ENGINE-COPY\ENGINE\ENGINEDLL\DEBUG\MODELIMPORTER.OBJ
C:\USERS\LUCAS\DESKTOP\ENGINE-COPY\ENGINE\ENGINEDLL\DEBUG\NEWCAMERA.OBJ
C:\USERS\LUCAS\DESKTOP\ENGINE-COPY\ENGINE\ENGINEDLL\DEBUG\CIRCLE.OBJ
C:\USERS\LUCAS\DESKTOP\ENGINE-COPY\ENGINE\ENGINEDLL\DEBUG\COLLISIONMANAGER.OBJ
C:\USERS\LUCAS\DESKTOP\ENGINE-COPY\ENGINE\ENGINEDLL\DEBUG\DEFINITIONS.OBJ
C:\USERS\LUCAS\DESKTOP\ENGINE-COPY\ENGINE\ENGINEDLL\DEBUG\ENTITY.OBJ
C:\USERS\LUCAS\DESKTOP\ENGINE-COPY\ENGINE\ENGINEDLL\DEBUG\GAMEBASE.OBJ
C:\USERS\LUCAS\DESKTOP\ENGINE-COPY\ENGINE\ENGINEDLL\DEBUG\INPUT.OBJ
C:\USERS\LUCAS\DESKTOP\ENGINE-COPY\ENGINE\ENGINEDLL\DEBUG\MATERIAL.OBJ
C:\USERS\LUCAS\DESKTOP\ENGINE-COPY\ENGINE\ENGINEDLL\DEBUG\MESH.OBJ
C:\USERS\LUCAS\DESKTOP\ENGINE-COPY\ENGINE\ENGINEDLL\DEBUG\RECTANGLE.OBJ
C:\USERS\LUCAS\DESKTOP\ENGINE-COPY\ENGINE\ENGINEDLL\DEBUG\RENDERER.OBJ
C:\USERS\LUCAS\DESKTOP\ENGINE-COPY\ENGINE\ENGINEDLL\DEBUG\SHAPE.OBJ
C:\USERS\LUCAS\DESKTOP\ENGINE-COPY\ENGINE\ENGINEDLL\DEBUG\SPRITE.OBJ
C:\USERS\LUCAS\DESKTOP\ENGINE-COPY\ENGINE\ENGINEDLL\DEBUG\TEXTUREIMPORTER.OBJ
C:\USERS\LUCAS\DESKTOP\ENGINE-COPY\ENGINE\ENGINEDLL\DEBUG\TILEMAP.OBJ
C:\USERS\LUCAS\DESKTOP\ENGINE-COPY\ENGINE\ENGINEDLL\DEBUG\TRANSFORM.OBJ
C:\USERS\LUCAS\DESKTOP\ENGINE-COPY\ENGINE\ENGINEDLL\DEBUG\TREEMESHRENDERER.OBJ
C:\USERS\LUCAS\DESKTOP\ENGINE-COPY\ENGINE\ENGINEDLL\DEBUG\TREEMODEL.OBJ
C:\USERS\LUCAS\DESKTOP\ENGINE-COPY\ENGINE\ENGINEDLL\DEBUG\TRIANGLE.OBJ
C:\USERS\LUCAS\DESKTOP\ENGINE-COPY\ENGINE\ENGINEDLL\DEBUG\WINDOW.OBJ
C:\WINDOWS\SYSTEM32\TZRES.DLL
C:\PROGRAM FILES (X86)\MICROSOFT VISUAL STUDIO\2017\COMMUNITY\VC\TOOLS\MSVC\14.10.25017\LIB\X86\MSVCPRTD.LIB
C:\PROGRAM FILES (X86)\MICROSOFT VISUAL STUDIO\2017\COMMUNITY\VC\TOOLS\MSVC\14.10.25017\LIB\X86\MSVCRTD.LIB
C:\PROGRAM FILES (X86)\MICROSOFT VISUAL STUDIO\2017\COMMUNITY\VC\TOOLS\MSVC\14.10.25017\LIB\X86\OLDNAMES.LIB
C:\USERS\LUCAS\DESKTOP\ENGINE-COPY\ENGINE\EXTERNAL\GLFW-3.2.1\LIB-VC2015\GLFW3.LIB
C:\USERS\LUCAS\DESKTOP\ENGINE-COPY\ENGINE\EXTERNAL\GLEW-2.1.0\LIB\RELEASE\WIN32\GLEW32.LIB
C:\PROGRAM FILES (X86)\WINDOWS KITS\10\LIB\10.0.17763.0\UM\X86\OPENGL32.LIB
C:\PROGRAM FILES (X86)\WINDOWS KITS\10\LIB\10.0.17763.0\UM\X86\GLU32.LIB
C:\PROGRAM FILES (X86)\MICROSOFT VISUAL STUDIO\2017\COMMUNITY\VC\TOOLS\MSVC\14.10.25017\LIB\X86\MSVCRT.LIB
C:\PROGRAM FILES (X86)\MICROSOFT VISUAL STUDIO\2017\COMMUNITY\VC\TOOLS\MSVC\14.10.25017\LIB\X86\VCRUNTIMED.LIB
C:\PROGRAM FILES (X86)\WINDOWS KITS\10\LIB\10.0.17763.0\UCRT\X86\UCRTD.LIB
