^C:\USERS\LUCAS\DESKTOP\ENGINE\ENGINE\ENGINEDLL\DEBUG\ANIMATION.OBJ|C:\USERS\LUCAS\DESKTOP\ENGINE\ENGINE\ENGINEDLL\DEBUG\CIRCLE.OBJ|C:\USERS\LUCAS\DESKTOP\ENGINE\ENGINE\ENGINEDLL\DEBUG\COLLISIONMANAGER.OBJ|C:\USERS\LUCAS\DESKTOP\ENGINE\ENGINE\ENGINEDLL\DEBUG\CUBE.OBJ|C:\USERS\LUCAS\DESKTOP\ENGINE\ENGINE\ENGINEDLL\DEBUG\DEFINITIONS.OBJ|C:\USERS\LUCAS\DESKTOP\ENGINE\ENGINE\ENGINEDLL\DEBUG\ENTITY.OBJ|C:\USERS\LUCAS\DESKTOP\ENGINE\ENGINE\ENGINEDLL\DEBUG\GAMEBASE.OBJ|C:\USERS\LUCAS\DESKTOP\ENGINE\ENGINE\ENGINEDLL\DEBUG\INPUT.OBJ|C:\USERS\LUCAS\DESKTOP\ENGINE\ENGINE\ENGINEDLL\DEBUG\MATERIAL.OBJ|C:\USERS\LUCAS\DESKTOP\ENGINE\ENGINE\ENGINEDLL\DEBUG\MESH.OBJ|C:\USERS\LUCAS\DESKTOP\ENGINE\ENGINE\ENGINEDLL\DEBUG\MESH_NOASSIMP.OBJ|C:\USERS\LUCAS\DESKTOP\ENGINE\ENGINE\ENGINEDLL\DEBUG\MODEL.OBJ|C:\USERS\LUCAS\DESKTOP\ENGINE\ENGINE\ENGINEDLL\DEBUG\MODELIMPORTER.OBJ|C:\USERS\LUCAS\DESKTOP\ENGINE\ENGINE\ENGINEDLL\DEBUG\NEWCAMERA.OBJ|C:\USERS\LUCAS\DESKTOP\ENGINE\ENGINE\ENGINEDLL\DEBUG\RECTANGLE.OBJ|C:\USERS\LUCAS\DESKTOP\ENGINE\ENGINE\ENGINEDLL\DEBUG\RENDERER.OBJ|C:\USERS\LUCAS\DESKTOP\ENGINE\ENGINE\ENGINEDLL\DEBUG\SHAPE.OBJ|C:\USERS\LUCAS\DESKTOP\ENGINE\ENGINE\ENGINEDLL\DEBUG\SPRITE.OBJ|C:\USERS\LUCAS\DESKTOP\ENGINE\ENGINE\ENGINEDLL\DEBUG\TEXTUREIMPORTER.OBJ|C:\USERS\LUCAS\DESKTOP\ENGINE\ENGINE\ENGINEDLL\DEBUG\TILEMAP.OBJ|C:\USERS\LUCAS\DESKTOP\ENGINE\ENGINE\ENGINEDLL\DEBUG\TRIANGLE.OBJ|C:\USERS\LUCAS\DESKTOP\ENGINE\ENGINE\ENGINEDLL\DEBUG\WINDOW.OBJ
C:\USERS\LUCAS\DESKTOP\ENGINE\ENGINE\DEBUG\ENGINEDLL.ILK
C:\USERS\LUCAS\DESKTOP\ENGINE\ENGINE\DEBUG\ENGINEDLL.DLL
C:\USERS\LUCAS\DESKTOP\ENGINE\ENGINE\DEBUG\ENGINEDLL.PDB
^C:\USERS\LUCAS\DESKTOP\ENGINE-COPY\ENGINE\ENGINEDLL\DEBUG\ANIMATION.OBJ|C:\USERS\LUCAS\DESKTOP\ENGINE-COPY\ENGINE\ENGINEDLL\DEBUG\CAMERACOMPONENT.OBJ|C:\USERS\LUCAS\DESKTOP\ENGINE-COPY\ENGINE\ENGINEDLL\DEBUG\CIRCLE.OBJ|C:\USERS\LUCAS\DESKTOP\ENGINE-COPY\ENGINE\ENGINEDLL\DEBUG\COLLISIONMANAGER.OBJ|C:\USERS\LUCAS\DESKTOP\ENGINE-COPY\ENGINE\ENGINEDLL\DEBUG\COMPONENTE.OBJ|C:\USERS\LUCAS\DESKTOP\ENGINE-COPY\ENGINE\ENGINEDLL\DEBUG\COSO.OBJ|C:\USERS\LUCAS\DESKTOP\ENGINE-COPY\ENGINE\ENGINEDLL\DEBUG\CUBE.OBJ|C:\USERS\LUCAS\DESKTOP\ENGINE-COPY\ENGINE\ENGINEDLL\DEBUG\DEFINITIONS.OBJ|C:\USERS\LUCAS\DESKTOP\ENGINE-COPY\ENGINE\ENGINEDLL\DEBUG\ENTITY.OBJ|C:\USERS\LUCAS\DESKTOP\ENGINE-COPY\ENGINE\ENGINEDLL\DEBUG\GAMEBASE.OBJ|C:\USERS\LUCAS\DESKTOP\ENGINE-COPY\ENGINE\ENGINEDLL\DEBUG\INPUT.OBJ|C:\USERS\LUCAS\DESKTOP\ENGINE-COPY\ENGINE\ENGINEDLL\DEBUG\MATERIAL.OBJ|C:\USERS\LUCAS\DESKTOP\ENGINE-COPY\ENGINE\ENGINEDLL\DEBUG\MATERIALCOMPONENT.OBJ|C:\USERS\LUCAS\DESKTOP\ENGINE-COPY\ENGINE\ENGINEDLL\DEBUG\MESH.OBJ|C:\USERS\LUCAS\DESKTOP\ENGINE-COPY\ENGINE\ENGINEDLL\DEBUG\MESHRENDERER.OBJ|C:\USERS\LUCAS\DESKTOP\ENGINE-COPY\ENGINE\ENGINEDLL\DEBUG\MESH_NOASSIMP.OBJ|C:\USERS\LUCAS\DESKTOP\ENGINE-COPY\ENGINE\ENGINEDLL\DEBUG\MODEL.OBJ|C:\USERS\LUCAS\DESKTOP\ENGINE-COPY\ENGINE\ENGINEDLL\DEBUG\MODELIMPORTER.OBJ|C:\USERS\LUCAS\DESKTOP\ENGINE-COPY\ENGINE\ENGINEDLL\DEBUG\NEWCAMERA.OBJ|C:\USERS\LUCAS\DESKTOP\ENGINE-COPY\ENGINE\ENGINEDLL\DEBUG\RECTANGLE.OBJ|C:\USERS\LUCAS\DESKTOP\ENGINE-COPY\ENGINE\ENGINEDLL\DEBUG\RENDERER.OBJ|C:\USERS\LUCAS\DESKTOP\ENGINE-COPY\ENGINE\ENGINEDLL\DEBUG\SHAPE.OBJ|C:\USERS\LUCAS\DESKTOP\ENGINE-COPY\ENGINE\ENGINEDLL\DEBUG\SPRITE.OBJ|C:\USERS\LUCAS\DESKTOP\ENGINE-COPY\ENGINE\ENGINEDLL\DEBUG\TEXTUREIMPORTER.OBJ|C:\USERS\LUCAS\DESKTOP\ENGINE-COPY\ENGINE\ENGINEDLL\DEBUG\TILEMAP.OBJ|C:\USERS\LUCAS\DESKTOP\ENGINE-COPY\ENGINE\ENGINEDLL\DEBUG\TRANSFORM.OBJ|C:\USERS\LUCAS\DESKTOP\ENGINE-COPY\ENGINE\ENGINEDLL\DEBUG\TREEMESHRENDERER.OBJ|C:\USERS\LUCAS\DESKTOP\ENGINE-COPY\ENGINE\ENGINEDLL\DEBUG\TREEMODEL.OBJ|C:\USERS\LUCAS\DESKTOP\ENGINE-COPY\ENGINE\ENGINEDLL\DEBUG\TRIANGLE.OBJ|C:\USERS\LUCAS\DESKTOP\ENGINE-COPY\ENGINE\ENGINEDLL\DEBUG\WINDOW.OBJ
C:\USERS\LUCAS\DESKTOP\ENGINE-COPY\ENGINE\DEBUG\ENGINEDLL.ILK
C:\USERS\LUCAS\DESKTOP\ENGINE-COPY\ENGINE\DEBUG\ENGINEDLL.DLL
C:\USERS\LUCAS\DESKTOP\ENGINE-COPY\ENGINE\DEBUG\ENGINEDLL.PDB
