^C:\USERS\LUCAS\DESKTOP\ENGINE\ENGINE\ENGINEDLL\ANIMATION.CPP
/c /I"C:\PROGRAM FILES (X86)\VISUAL LEAK DETECTOR\INCLUDE" /ZI /nologo /W3 /WX- /diagnostics:classic /sdl /Od /D _MBCS /Gm /EHsc /RTC1 /MDd /GS /fp:precise /Zc:wchar_t /Zc:forScope /Zc:inline /Fo"X64\DEBUG\\" /Fd"X64\DEBUG\VC141.PDB" /Gd /TP C:\USERS\LUCAS\DESKTOP\ENGINE\ENGINE\ENGINEDLL\ANIMATION.CPP
^C:\USERS\LUCAS\DESKTOP\ENGINE\ENGINE\ENGINEDLL\NEWCAMERA.CPP
/c /I"C:\PROGRAM FILES (X86)\VISUAL LEAK DETECTOR\INCLUDE" /ZI /nologo /W3 /WX- /diagnostics:classic /sdl /Od /D _MBCS /Gm /EHsc /RTC1 /MDd /GS /fp:precise /Zc:wchar_t /Zc:forScope /Zc:inline /Fo"X64\DEBUG\\" /Fd"X64\DEBUG\VC141.PDB" /Gd /TP C:\USERS\LUCAS\DESKTOP\ENGINE\ENGINE\ENGINEDLL\NEWCAMERA.CPP
^C:\USERS\LUCAS\DESKTOP\ENGINE\ENGINE\ENGINEDLL\CIRCLE.CPP
/c /I"C:\PROGRAM FILES (X86)\VISUAL LEAK DETECTOR\INCLUDE" /ZI /nologo /W3 /WX- /diagnostics:classic /sdl /Od /D _MBCS /Gm /EHsc /RTC1 /MDd /GS /fp:precise /Zc:wchar_t /Zc:forScope /Zc:inline /Fo"X64\DEBUG\\" /Fd"X64\DEBUG\VC141.PDB" /Gd /TP C:\USERS\LUCAS\DESKTOP\ENGINE\ENGINE\ENGINEDLL\CIRCLE.CPP
^C:\USERS\LUCAS\DESKTOP\ENGINE\ENGINE\ENGINEDLL\COLLISIONMANAGER.CPP
/c /I"C:\PROGRAM FILES (X86)\VISUAL LEAK DETECTOR\INCLUDE" /ZI /nologo /W3 /WX- /diagnostics:classic /sdl /Od /D _MBCS /Gm /EHsc /RTC1 /MDd /GS /fp:precise /Zc:wchar_t /Zc:forScope /Zc:inline /Fo"X64\DEBUG\\" /Fd"X64\DEBUG\VC141.PDB" /Gd /TP C:\USERS\LUCAS\DESKTOP\ENGINE\ENGINE\ENGINEDLL\COLLISIONMANAGER.CPP
^C:\USERS\LUCAS\DESKTOP\ENGINE\ENGINE\ENGINEDLL\DEFINITIONS.CPP
/c /I"C:\PROGRAM FILES (X86)\VISUAL LEAK DETECTOR\INCLUDE" /ZI /nologo /W3 /WX- /diagnostics:classic /sdl /Od /D _MBCS /Gm /EHsc /RTC1 /MDd /GS /fp:precise /Zc:wchar_t /Zc:forScope /Zc:inline /Fo"X64\DEBUG\\" /Fd"X64\DEBUG\VC141.PDB" /Gd /TP C:\USERS\LUCAS\DESKTOP\ENGINE\ENGINE\ENGINEDLL\DEFINITIONS.CPP
^C:\USERS\LUCAS\DESKTOP\ENGINE\ENGINE\ENGINEDLL\ENTITY.CPP
/c /I"C:\PROGRAM FILES (X86)\VISUAL LEAK DETECTOR\INCLUDE" /ZI /nologo /W3 /WX- /diagnostics:classic /sdl /Od /D _MBCS /Gm /EHsc /RTC1 /MDd /GS /fp:precise /Zc:wchar_t /Zc:forScope /Zc:inline /Fo"X64\DEBUG\\" /Fd"X64\DEBUG\VC141.PDB" /Gd /TP C:\USERS\LUCAS\DESKTOP\ENGINE\ENGINE\ENGINEDLL\ENTITY.CPP
^C:\USERS\LUCAS\DESKTOP\ENGINE\ENGINE\ENGINEDLL\GAMEBASE.CPP
/c /I"C:\PROGRAM FILES (X86)\VISUAL LEAK DETECTOR\INCLUDE" /ZI /nologo /W3 /WX- /diagnostics:classic /sdl /Od /D _MBCS /Gm /EHsc /RTC1 /MDd /GS /fp:precise /Zc:wchar_t /Zc:forScope /Zc:inline /Fo"X64\DEBUG\\" /Fd"X64\DEBUG\VC141.PDB" /Gd /TP C:\USERS\LUCAS\DESKTOP\ENGINE\ENGINE\ENGINEDLL\GAMEBASE.CPP
^C:\USERS\LUCAS\DESKTOP\ENGINE\ENGINE\ENGINEDLL\INPUT.CPP
/c /I"C:\PROGRAM FILES (X86)\VISUAL LEAK DETECTOR\INCLUDE" /ZI /nologo /W3 /WX- /diagnostics:classic /sdl /Od /D _MBCS /Gm /EHsc /RTC1 /MDd /GS /fp:precise /Zc:wchar_t /Zc:forScope /Zc:inline /Fo"X64\DEBUG\\" /Fd"X64\DEBUG\VC141.PDB" /Gd /TP C:\USERS\LUCAS\DESKTOP\ENGINE\ENGINE\ENGINEDLL\INPUT.CPP
^C:\USERS\LUCAS\DESKTOP\ENGINE\ENGINE\ENGINEDLL\MATERIAL.CPP
/c /I"C:\PROGRAM FILES (X86)\VISUAL LEAK DETECTOR\INCLUDE" /ZI /nologo /W3 /WX- /diagnostics:classic /sdl /Od /D _MBCS /Gm /EHsc /RTC1 /MDd /GS /fp:precise /Zc:wchar_t /Zc:forScope /Zc:inline /Fo"X64\DEBUG\\" /Fd"X64\DEBUG\VC141.PDB" /Gd /TP C:\USERS\LUCAS\DESKTOP\ENGINE\ENGINE\ENGINEDLL\MATERIAL.CPP
^C:\USERS\LUCAS\DESKTOP\ENGINE\ENGINE\ENGINEDLL\MESH.CPP
/c /I"C:\PROGRAM FILES (X86)\VISUAL LEAK DETECTOR\INCLUDE" /ZI /nologo /W3 /WX- /diagnostics:classic /sdl /Od /D _MBCS /Gm /EHsc /RTC1 /MDd /GS /fp:precise /Zc:wchar_t /Zc:forScope /Zc:inline /Fo"X64\DEBUG\\" /Fd"X64\DEBUG\VC141.PDB" /Gd /TP C:\USERS\LUCAS\DESKTOP\ENGINE\ENGINE\ENGINEDLL\MESH.CPP
^C:\USERS\LUCAS\DESKTOP\ENGINE\ENGINE\ENGINEDLL\RECTANGLE.CPP
/c /I"C:\PROGRAM FILES (X86)\VISUAL LEAK DETECTOR\INCLUDE" /ZI /nologo /W3 /WX- /diagnostics:classic /sdl /Od /D _MBCS /Gm /EHsc /RTC1 /MDd /GS /fp:precise /Zc:wchar_t /Zc:forScope /Zc:inline /Fo"X64\DEBUG\\" /Fd"X64\DEBUG\VC141.PDB" /Gd /TP C:\USERS\LUCAS\DESKTOP\ENGINE\ENGINE\ENGINEDLL\RECTANGLE.CPP
^C:\USERS\LUCAS\DESKTOP\ENGINE\ENGINE\ENGINEDLL\RENDERER.CPP
/c /I"C:\PROGRAM FILES (X86)\VISUAL LEAK DETECTOR\INCLUDE" /ZI /nologo /W3 /WX- /diagnostics:classic /sdl /Od /D _MBCS /Gm /EHsc /RTC1 /MDd /GS /fp:precise /Zc:wchar_t /Zc:forScope /Zc:inline /Fo"X64\DEBUG\\" /Fd"X64\DEBUG\VC141.PDB" /Gd /TP C:\USERS\LUCAS\DESKTOP\ENGINE\ENGINE\ENGINEDLL\RENDERER.CPP
^C:\USERS\LUCAS\DESKTOP\ENGINE\ENGINE\ENGINEDLL\SHAPE.CPP
/c /I"C:\PROGRAM FILES (X86)\VISUAL LEAK DETECTOR\INCLUDE" /ZI /nologo /W3 /WX- /diagnostics:classic /sdl /Od /D _MBCS /Gm /EHsc /RTC1 /MDd /GS /fp:precise /Zc:wchar_t /Zc:forScope /Zc:inline /Fo"X64\DEBUG\\" /Fd"X64\DEBUG\VC141.PDB" /Gd /TP C:\USERS\LUCAS\DESKTOP\ENGINE\ENGINE\ENGINEDLL\SHAPE.CPP
^C:\USERS\LUCAS\DESKTOP\ENGINE\ENGINE\ENGINEDLL\SPRITE.CPP
/c /I"C:\PROGRAM FILES (X86)\VISUAL LEAK DETECTOR\INCLUDE" /ZI /nologo /W3 /WX- /diagnostics:classic /sdl /Od /D _MBCS /Gm /EHsc /RTC1 /MDd /GS /fp:precise /Zc:wchar_t /Zc:forScope /Zc:inline /Fo"X64\DEBUG\\" /Fd"X64\DEBUG\VC141.PDB" /Gd /TP C:\USERS\LUCAS\DESKTOP\ENGINE\ENGINE\ENGINEDLL\SPRITE.CPP
^C:\USERS\LUCAS\DESKTOP\ENGINE\ENGINE\ENGINEDLL\TEXTUREIMPORTER.CPP
/c /I"C:\PROGRAM FILES (X86)\VISUAL LEAK DETECTOR\INCLUDE" /ZI /nologo /W3 /WX- /diagnostics:classic /sdl /Od /D _MBCS /Gm /EHsc /RTC1 /MDd /GS /fp:precise /Zc:wchar_t /Zc:forScope /Zc:inline /Fo"X64\DEBUG\\" /Fd"X64\DEBUG\VC141.PDB" /Gd /TP C:\USERS\LUCAS\DESKTOP\ENGINE\ENGINE\ENGINEDLL\TEXTUREIMPORTER.CPP
^C:\USERS\LUCAS\DESKTOP\ENGINE\ENGINE\ENGINEDLL\TILEMAP.CPP
/c /I"C:\PROGRAM FILES (X86)\VISUAL LEAK DETECTOR\INCLUDE" /ZI /nologo /W3 /WX- /diagnostics:classic /sdl /Od /D _MBCS /Gm /EHsc /RTC1 /MDd /GS /fp:precise /Zc:wchar_t /Zc:forScope /Zc:inline /Fo"X64\DEBUG\\" /Fd"X64\DEBUG\VC141.PDB" /Gd /TP C:\USERS\LUCAS\DESKTOP\ENGINE\ENGINE\ENGINEDLL\TILEMAP.CPP
^C:\USERS\LUCAS\DESKTOP\ENGINE\ENGINE\ENGINEDLL\TRIANGLE.CPP
/c /I"C:\PROGRAM FILES (X86)\VISUAL LEAK DETECTOR\INCLUDE" /ZI /nologo /W3 /WX- /diagnostics:classic /sdl /Od /D _MBCS /Gm /EHsc /RTC1 /MDd /GS /fp:precise /Zc:wchar_t /Zc:forScope /Zc:inline /Fo"X64\DEBUG\\" /Fd"X64\DEBUG\VC141.PDB" /Gd /TP C:\USERS\LUCAS\DESKTOP\ENGINE\ENGINE\ENGINEDLL\TRIANGLE.CPP
^C:\USERS\LUCAS\DESKTOP\ENGINE\ENGINE\ENGINEDLL\WINDOW.CPP
/c /I"C:\PROGRAM FILES (X86)\VISUAL LEAK DETECTOR\INCLUDE" /ZI /nologo /W3 /WX- /diagnostics:classic /sdl /Od /D _MBCS /Gm /EHsc /RTC1 /MDd /GS /fp:precise /Zc:wchar_t /Zc:forScope /Zc:inline /Fo"X64\DEBUG\\" /Fd"X64\DEBUG\VC141.PDB" /Gd /TP C:\USERS\LUCAS\DESKTOP\ENGINE\ENGINE\ENGINEDLL\WINDOW.CPP
^C:\USERS\LUCAS\DESKTOP\ENGINE\ENGINE\ENGINEDLL\CUBE.CPP
/c /I"C:\PROGRAM FILES (X86)\VISUAL LEAK DETECTOR\INCLUDE" /ZI /nologo /W3 /WX- /diagnostics:classic /sdl /Od /D _MBCS /Gm /EHsc /RTC1 /MDd /GS /fp:precise /Zc:wchar_t /Zc:forScope /Zc:inline /Fo"X64\DEBUG\\" /Fd"X64\DEBUG\VC141.PDB" /Gd /TP C:\USERS\LUCAS\DESKTOP\ENGINE\ENGINE\ENGINEDLL\CUBE.CPP
^C:\USERS\LUCAS\DESKTOP\ENGINE\ENGINE\ENGINEDLL\MESH_NOASSIMP.CPP
/c /I"C:\PROGRAM FILES (X86)\VISUAL LEAK DETECTOR\INCLUDE" /ZI /nologo /W3 /WX- /diagnostics:classic /sdl /Od /D _MBCS /Gm /EHsc /RTC1 /MDd /GS /fp:precise /Zc:wchar_t /Zc:forScope /Zc:inline /Fo"X64\DEBUG\\" /Fd"X64\DEBUG\VC141.PDB" /Gd /TP C:\USERS\LUCAS\DESKTOP\ENGINE\ENGINE\ENGINEDLL\MESH_NOASSIMP.CPP
^C:\USERS\LUCAS\DESKTOP\ENGINE\ENGINE\ENGINEDLL\MODEL.CPP
/c /I"C:\PROGRAM FILES (X86)\VISUAL LEAK DETECTOR\INCLUDE" /ZI /nologo /W3 /WX- /diagnostics:classic /sdl /Od /D _MBCS /Gm /EHsc /RTC1 /MDd /GS /fp:precise /Zc:wchar_t /Zc:forScope /Zc:inline /Fo"X64\DEBUG\\" /Fd"X64\DEBUG\VC141.PDB" /Gd /TP C:\USERS\LUCAS\DESKTOP\ENGINE\ENGINE\ENGINEDLL\MODEL.CPP
^C:\USERS\LUCAS\DESKTOP\ENGINE\ENGINE\ENGINEDLL\MODELIMPORTER.CPP
/c /I"C:\PROGRAM FILES (X86)\VISUAL LEAK DETECTOR\INCLUDE" /ZI /nologo /W3 /WX- /diagnostics:classic /sdl /Od /D _MBCS /Gm /EHsc /RTC1 /MDd /GS /fp:precise /Zc:wchar_t /Zc:forScope /Zc:inline /Fo"X64\DEBUG\\" /Fd"X64\DEBUG\VC141.PDB" /Gd /TP C:\USERS\LUCAS\DESKTOP\ENGINE\ENGINE\ENGINEDLL\MODELIMPORTER.CPP
