^C:\USERS\LUCAS\DESKTOP\ENGINE\ENGINE\TESTENGINE\ASTEROID.CPP
/c /I"C:\PROGRAM FILES (X86)\VISUAL LEAK DETECTOR\INCLUDE" /ZI /nologo /W3 /WX- /diagnostics:classic /sdl /Od /D _MBCS /Gm /EHsc /RTC1 /MDd /GS /fp:precise /Zc:wchar_t /Zc:forScope /Zc:inline /Fo"X64\DEBUG\\" /Fd"X64\DEBUG\VC141.PDB" /Gd /TP C:\USERS\LUCAS\DESKTOP\ENGINE\ENGINE\TESTENGINE\ASTEROID.CPP
^C:\USERS\LUCAS\DESKTOP\ENGINE\ENGINE\TESTENGINE\GAME.CPP
/c /I"C:\PROGRAM FILES (X86)\VISUAL LEAK DETECTOR\INCLUDE" /ZI /nologo /W3 /WX- /diagnostics:classic /sdl /Od /D _MBCS /Gm /EHsc /RTC1 /MDd /GS /fp:precise /Zc:wchar_t /Zc:forScope /Zc:inline /Fo"X64\DEBUG\\" /Fd"X64\DEBUG\VC141.PDB" /Gd /TP C:\USERS\LUCAS\DESKTOP\ENGINE\ENGINE\TESTENGINE\GAME.CPP
^C:\USERS\LUCAS\DESKTOP\ENGINE\ENGINE\TESTENGINE\MAIN.CPP
/c /I"C:\PROGRAM FILES (X86)\VISUAL LEAK DETECTOR\INCLUDE" /ZI /nologo /W3 /WX- /diagnostics:classic /sdl /Od /D _MBCS /Gm /EHsc /RTC1 /MDd /GS /fp:precise /Zc:wchar_t /Zc:forScope /Zc:inline /Fo"X64\DEBUG\\" /Fd"X64\DEBUG\VC141.PDB" /Gd /TP C:\USERS\LUCAS\DESKTOP\ENGINE\ENGINE\TESTENGINE\MAIN.CPP
^C:\USERS\LUCAS\DESKTOP\ENGINE\ENGINE\TESTENGINE\PLAYER.CPP
/c /I"C:\PROGRAM FILES (X86)\VISUAL LEAK DETECTOR\INCLUDE" /ZI /nologo /W3 /WX- /diagnostics:classic /sdl /Od /D _MBCS /Gm /EHsc /RTC1 /MDd /GS /fp:precise /Zc:wchar_t /Zc:forScope /Zc:inline /Fo"X64\DEBUG\\" /Fd"X64\DEBUG\VC141.PDB" /Gd /TP C:\USERS\LUCAS\DESKTOP\ENGINE\ENGINE\TESTENGINE\PLAYER.CPP
